Division,WeightClassKg,Place,Name,Team,BodyweightKg,Best3SquatKg,Best3BenchKg,Best3DeadliftKg,TotalKg,Equipment,Event,Sex
Boys,51.71,1,Cassius Fitzpatrick,Denison,51.17,140.61,90.72,147.42,378.75,Single-ply,SBD,M
Boys,51.71,2,Russell Wilcox,Leonard,50.89,115.67,52.16,131.54,299.37,Single-ply,SBD,M
Boys,51.71,3,Brian Esquivel,Melissa,51.26,106.59,72.57,120.2,299.37,Single-ply,SBD,M
Boys,51.71,4,Jonathan Esquivel,Melissa,51.71,115.67,61.23,122.47,299.37,Single-ply,SBD,M
Boys,51.71,5,Exxon Pantaleon,Krum,49.17,90.72,54.43,131.54,276.69,Single-ply,SBD,M
Boys,51.71,6,Bailey Belcher,Gunter,50.98,70.31,52.16,92.99,215.46,Single-ply,SBD,M
Boys,51.71,7,Peyton Raymer,Blue Ridge,49.53,72.57,43.09,86.18,201.85,Single-ply,SBD,M
Boys,51.71,8,Charlie McGee,Lake Dallas,49.71,61.23,52.16,79.38,192.78,Single-ply,SBD,M
Boys,51.71,DQ,Riley Sprowl,Van Alstyne,45.81,,40.82,68.04,,Single-ply,SBD,M
Boys,55.79,1,Dalton Krodle,Commerce,55.52,106.59,65.77,131.54,303.91,Single-ply,SBD,M
Boys,55.79,2,Scott Crum,Anna,55.79,111.13,58.97,104.33,274.42,Single-ply,SBD,M
Boys,55.79,3,Jack Jones #4,Cumby,54.61,90.72,68.04,97.52,256.28,Single-ply,SBD,M
Boys,55.79,4,Alex Montoya,Blue Ridge,55.79,88.45,54.43,106.59,249.48,Single-ply,SBD,M
Boys,55.79,5,Jacob Lopez,Ferris,55.34,90.72,54.43,92.99,238.14,Single-ply,SBD,M
Boys,55.79,6,Jessie Couch,Denison,52.98,90.72,54.43,90.72,235.87,Single-ply,SBD,M
Boys,55.79,7,James Kitchens,Commerce,53.07,88.45,45.36,95.25,229.06,Single-ply,SBD,M
Boys,55.79,DQ,Tyler Stevens,Leonard,55.79,,,,,Single-ply,SBD,M
Boys,55.79,DQ,Roy Riggins,Van Alstyne,55.79,,,,,Single-ply,SBD,M
Boys,59.87,1,Brandon Jones #8,Cumby,57.06,136.08,99.79,156.49,392.36,Single-ply,SBD,M
Boys,67.13,2,Reece Walker,Cumby,60.1,131.54,74.84,151.95,358.34,Single-ply,SBD,M
Boys,59.87,3,Jace Pallan,Celeste,56.79,131.54,81.65,142.88,356.07,Single-ply,SBD,M
Boys,59.87,4,Gio Soto,Leonard,59.51,136.08,70.31,138.35,344.73,Single-ply,SBD,M
Boys,67.13,5,Romario Hernandez,Krum,60.1,127.01,74.84,142.88,344.73,Single-ply,SBD,M
Boys,59.87,6,Axel Banks,Denison,57.79,113.4,83.91,136.08,333.39,Single-ply,SBD,M
Boys,59.87,7,Nathan Scoggins,Prosper,57.24,97.52,56.7,104.33,258.55,Single-ply,SBD,M
Boys,59.87,DQ,Junior Torres,Melissa,58.97,,,,,Single-ply,SBD,M
Boys,59.87,DQ,Jared Mathews,Paris Chisum,57.61,,74.84,124.74,,Single-ply,SBD,M
Boys,59.87,DQ,Jacob Wantroba,Denison,58.06,,70.31,127.01,,Single-ply,SBD,M
Boys,59.87,DQ,Daniel Pena,Ferris,56.43,122.47,,,,Single-ply,SBD,M
Boys,74.84,1,JR Pena,Ferris,67.31,183.7,102.06,197.31,483.08,Single-ply,SBD,M
Boys,67.13,2,Dylan Serna,Krum,63.59,190.51,102.06,185.97,478.54,Single-ply,SBD,M
Boys,67.13,3,Kyle Garner,Gunter,65.68,147.42,102.06,165.56,415.04,Single-ply,SBD,M
Boys,67.13,4,Ian Concepcion,Krum,67.13,167.83,77.11,161.03,405.97,Single-ply,SBD,M
Boys,74.84,5,Eric Valenzuela,Dallas Life Oak Cliff,67.36,147.42,92.99,156.49,396.89,Single-ply,SBD,M
Boys,74.84,5,Eric Valenzuela,Dallas Life Oak Cliff,67.36,147.42,92.99,156.49,396.89,Single-ply,SBD,M
Boys,67.13,6,Ramon Fierro,Howe,64.77,142.88,68.04,154.22,365.14,Single-ply,SBD,M
Boys,67.13,7,Brock Figart,Lake Dallas,66.04,140.61,81.65,124.74,347,Single-ply,SBD,M
Boys,67.13,8,Roger Bryant,Krum,63.78,120.2,70.31,136.08,326.59,Single-ply,SBD,M
Boys,67.13,9,Austin Caldwell,Callisburg,67.13,133.81,63.5,120.2,317.51,Single-ply,SBD,M
Boys,67.13,10,Bradlee Figart,Lake Dallas,61.78,113.4,97.52,104.33,315.25,Single-ply,SBD,M
Boys,67.13,11,Justin Keeton,Anna,66.68,99.79,65.77,140.61,306.17,Single-ply,SBD,M
Boys,74.84,12,Armando Morones,Ferris,67.36,108.86,74.84,122.47,306.17,Single-ply,SBD,M
Boys,67.13,13,Galen Sallee,Krum,62.51,102.06,63.5,129.27,294.84,Single-ply,SBD,M
Boys,67.13,14,Cody Bodkins,Callisburg,63.05,104.33,74.84,108.86,288.03,Single-ply,SBD,M
Boys,67.13,15,Cody Long,Anna,67.13,104.33,49.9,113.4,267.62,Single-ply,SBD,M
Boys,67.13,DQ,Rickey Lewis,Celeste,63.5,,,,,Single-ply,SBD,M
Boys,67.13,DQ,Jaden Duck,Cumby,64.41,,,,,Single-ply,SBD,M
Boys,67.13,DQ,Hayden Hollen,Cumby,65.68,122.47,,142.88,,Single-ply,SBD,M
Boys,67.13,DQ,Ty Watson,Howe,63.14,120.2,,133.81,,Single-ply,SBD,M
Boys,74.84,1,Andres Sandoval,Ferris,68.31,172.37,136.08,179.17,487.61,Single-ply,SBD,M
Boys,82.1,2,Dustin Richards,Krum,75.02,156.49,99.79,183.7,439.98,Single-ply,SBD,M
Boys,74.84,3,Jarrell Washington,Leonard,67.95,163.29,104.33,158.76,426.38,Single-ply,SBD,M
Boys,74.84,4,Sam Pitts,Paris Chisum,74.84,154.22,88.45,170.1,412.77,Single-ply,SBD,M
Boys,82.1,5,Chris Saunders,Dallas Life Oak Cliff,74.93,138.35,102.06,165.56,405.97,Single-ply,SBD,M
Boys,82.1,5,Chris Saunders,Dallas Life Oak Cliff,74.93,138.35,102.06,165.56,405.97,Single-ply,SBD,M
Boys,74.84,6,Brian Funderburke,Dallas Life Oak Cliff,74.03,158.76,83.91,156.49,399.16,Single-ply,SBD,M
Boys,74.84,6,Brian Funderburke,Dallas Life Oak Cliff,74.03,158.76,83.91,156.49,399.16,Single-ply,SBD,M
Boys,74.84,7,Tim Herman,Celeste,72.67,158.76,88.45,149.69,396.89,Single-ply,SBD,M
Boys,74.84,8,Eddie Moreno,Denison,74.84,124.74,90.72,165.56,381.02,Single-ply,SBD,M
Boys,74.84,9,Connor Thompson,Prosper,74.3,140.61,102.06,136.08,378.75,Single-ply,SBD,M
Boys,74.84,10,Dean Kane,Krum,69.85,129.27,83.91,147.42,360.61,Single-ply,SBD,M
Boys,74.84,11,Chase Pinion,Anna,71.21,129.27,86.18,142.88,358.34,Single-ply,SBD,M
Boys,74.84,12,Dj Jarrard,Celeste,73.03,129.27,79.38,138.35,347,Single-ply,SBD,M
Boys,74.84,13,Wade Woodard,Prosper,73.94,115.67,99.79,122.47,337.93,Single-ply,SBD,M
Boys,74.84,14,Jody Price,Callisburg,69.67,129.27,68.04,136.08,333.39,Single-ply,SBD,M
Boys,74.84,15,Walker Copeland,Leonard,73.84,117.93,77.11,138.35,333.39,Single-ply,SBD,M
Boys,74.84,16,Brady Peterson,Prosper,73.21,106.59,81.65,138.35,326.59,Single-ply,SBD,M
Boys,74.84,17,Jacob Jones,Callisburg,73.66,113.4,63.5,127.01,303.91,Single-ply,SBD,M
Boys,74.84,DQ,John Evans,Cumby,69.94,,,102.06,,Single-ply,SBD,M
Boys,74.84,DQ,Jacob Eady,Anna,71.21,,,,,Single-ply,SBD,M
Boys,74.84,DQ,Mark Contreras,Lake Dallas,74.84,,,,,Single-ply,SBD,M
Boys,74.84,DQ,Matthew Jelen,Krum,68.58,,88.45,145.15,,Single-ply,SBD,M
Boys,74.84,DQ,Joaquin Lopez,Howe,68.22,,92.99,145.15,,Single-ply,SBD,M
Boys,74.84,DQ,Garret Blank,Krum,74.84,,,,,Single-ply,SBD,M
Boys,74.84,DQ,Hunter Shaw,Howe,70.4,124.74,,136.08,,Single-ply,SBD,M
Boys,82.1,DQ,Sawyer Watson,Lake Dallas,75.02,147.42,,127.01,,Single-ply,SBD,M
Boys,74.84,DQ,Luis Garcia #3,Callisburg,74.84,142.88,,147.42,,Single-ply,SBD,M
Boys,89.81,1,Austin Arnold,Denison,82.33,213.19,165.56,226.8,605.55,Single-ply,SBD,M
Boys,82.1,2,Dustin Williams,Anna,82.1,215.46,145.15,195.04,555.65,Single-ply,SBD,M
Boys,82.1,3,Michael Williams,Dallas Life Oak Cliff,79.29,174.63,133.81,244.94,553.38,Single-ply,SBD,M
Boys,82.1,3,Michael Williams,Dallas Life Oak Cliff,79.29,174.63,133.81,244.94,553.38,Single-ply,SBD,M
Boys,82.1,4,Isaiah Martinez,Commerce,81.92,206.38,124.74,188.24,519.36,Single-ply,SBD,M
Boys,82.1,5,Chance Bratcher,Sadler S & S Cons,81.74,201.85,111.13,181.44,494.42,Single-ply,SBD,M
Boys,82.1,6,Luis Erives,Sadler S & S Cons,81.65,147.42,113.4,204.12,464.93,Single-ply,SBD,M
Boys,82.1,7,Deunte Levine,Dallas Life Oak Cliff,78.2,161.03,97.52,181.44,439.98,Single-ply,SBD,M
Boys,82.1,7,Deunte Levine,Dallas Life Oak Cliff,78.2,161.03,97.52,181.44,439.98,Single-ply,SBD,M
Boys,82.1,8,Colton Hensley,Denison,75.66,158.76,90.72,188.24,437.72,Single-ply,SBD,M
Boys,82.1,9,Sean Kyle,Anna,80.74,176.9,104.33,154.22,435.45,Single-ply,SBD,M
Boys,82.1,10,Dakota Tinney,Callisburg,81.74,158.76,102.06,165.56,426.38,Single-ply,SBD,M
Boys,82.1,11,Cody Anderson,Cumby,79.47,156.49,77.11,167.83,401.43,Single-ply,SBD,M
Boys,82.1,12,Isaac Olvera,Anna,78.02,145.15,117.93,136.08,399.16,Single-ply,SBD,M
Boys,82.1,13,Justin Bennett,Leonard,75.75,142.88,92.99,151.95,387.82,Single-ply,SBD,M
Boys,82.1,14,Bryce Himmelreich,Van Alstyne,81.65,138.35,97.52,129.27,365.14,Single-ply,SBD,M
Boys,82.1,15,Daniel Tarlton,Van Alstyne,81.92,138.35,77.11,142.88,358.34,Single-ply,SBD,M
Boys,82.1,16,Logan Shipley,Krum,82.1,111.13,74.84,165.56,351.53,Single-ply,SBD,M
Boys,82.1,17,Tyler Morris,Blue Ridge,77.75,115.67,90.72,117.93,324.32,Single-ply,SBD,M
Boys,82.1,18,Santiago Maldonado,Blue Ridge,76.66,136.08,52.16,131.54,319.78,Single-ply,SBD,M
Boys,82.1,19,Cody Spradling,Celeste,82.01,88.45,70.31,115.67,274.42,Single-ply,SBD,M
Boys,82.1,DQ,Evan Raymond,Cumby,75.66,,63.5,136.08,,Single-ply,SBD,M
Boys,82.1,DQ,Chris Lackey,Cumby,78.93,,,,,Single-ply,SBD,M
Boys,82.1,DQ,Marcus Cantera,Commerce,79.74,,122.47,199.58,,Single-ply,SBD,M
Boys,82.1,DQ,Alex Cole,Van Alstyne,82.1,,,,,Single-ply,SBD,M
Boys,82.1,DQ,Montrel Williams,Dallas Life Oak Cliff,81.19,138.35,92.99,,,Single-ply,SBD,M
Boys,82.1,DQ,Zac Larue,Callisburg,80.29,102.06,,113.4,,Single-ply,SBD,M
Boys,82.1,DQ,Montrel Williams,Dallas Life Oak Cliff,81.19,138.35,92.99,,,Single-ply,SBD,M
Boys,89.81,1,Jeffery McClinton,Callisburg,86.55,197.31,102.06,204.12,503.49,Single-ply,SBD,M
Boys,89.81,2,Arnold Contreras,Leonard,85.28,208.65,104.33,165.56,478.54,Single-ply,SBD,M
Boys,99.79,3,Slayton Shiels,Lucas Lovejoy,89.99,163.29,113.4,190.51,467.2,Single-ply,SBD,M
Boys,89.81,4,Garrett Lansford,Anna,86.18,181.44,102.06,181.44,464.93,Single-ply,SBD,M
Boys,89.81,5,Alec Smith,Celeste,84.46,142.88,108.86,183.7,435.45,Single-ply,SBD,M
Boys,89.81,6,Dylan Coffin,Krum,88.45,158.76,86.18,170.1,415.04,Single-ply,SBD,M
Boys,89.81,7,Jacob Olivarez,Krum,83.82,172.37,83.91,151.95,408.23,Single-ply,SBD,M
Boys,89.81,8,Weston Jobe,Blue Ridge,85.73,131.54,77.11,142.88,351.53,Single-ply,SBD,M
Boys,89.81,9,Jordan Wright,Celeste,89.81,124.74,61.23,136.08,322.05,Single-ply,SBD,M
Boys,89.81,10,Ruben Garcia,Leonard,87.72,97.52,77.11,145.15,319.78,Single-ply,SBD,M
Boys,89.81,11,Matthew Norrell,Anna,86.18,99.79,63.5,113.4,276.69,Single-ply,SBD,M
Boys,89.81,12,Justin Bilbrey,Howe,84.46,61.23,45.36,81.65,188.24,Single-ply,SBD,M
Boys,89.81,DQ,Corey Aspell,Denison,85.64,,92.99,179.17,,Single-ply,SBD,M
Boys,89.81,DQ,Cameron Litzkow,Van Alstyne,84.73,,113.4,210.92,,Single-ply,SBD,M
Boys,99.79,1,Eduardo Webber,Howe,92.35,251.74,154.22,226.8,632.76,Single-ply,SBD,M
Boys,99.79,2,Clay Eppler,Denison,95.62,188.24,140.61,217.72,546.58,Single-ply,SBD,M
Boys,99.79,3,Omar Alonso,Prosper,96.8,201.85,138.35,192.78,532.97,Single-ply,SBD,M
Boys,99.79,4,KaLynn Miller,Paris Chisum,96.25,199.58,133.81,192.78,526.17,Single-ply,SBD,M
Boys,99.79,5,Martin Guerrero,Ferris,98.61,192.78,124.74,201.85,519.36,Single-ply,SBD,M
Boys,99.79,6,Jon Boehler,Paris Chisum,94.98,181.44,140.61,181.44,503.49,Single-ply,SBD,M
Boys,99.79,7,Josh Heath,Denison,97.34,183.7,111.13,201.85,496.68,Single-ply,SBD,M
Boys,99.79,8,Dawson Stewart,Howe,97.43,188.24,97.52,204.12,489.88,Single-ply,SBD,M
Boys,99.79,9,Brandon Behrens,Prosper,95.89,181.44,117.93,165.56,464.93,Single-ply,SBD,M
Boys,99.79,10,Jd Poe,Lucas Lovejoy,95.98,158.76,113.4,163.29,435.45,Single-ply,SBD,M
Boys,99.79,11,James Kemp,Anna,92.99,142.88,90.72,181.44,415.04,Single-ply,SBD,M
Boys,99.79,12,Raymond Taylor,Anna,92.99,167.83,97.52,145.15,410.5,Single-ply,SBD,M
Boys,99.79,13,Shane Tilden,Krum,91.08,145.15,90.72,158.76,394.63,Single-ply,SBD,M
Boys,99.79,14,Tyler Bradford,Anna,92.53,140.61,102.06,149.69,392.36,Single-ply,SBD,M
Boys,99.79,15,Manny Semidey,Van Alstyne,94.35,142.88,99.79,136.08,378.75,Single-ply,SBD,M
Boys,99.79,16,Dalton Benson,Celeste,99.79,106.59,74.84,147.42,328.85,Single-ply,SBD,M
Boys,99.79,17,Ezavian Franklin,Dallas Life Oak Cliff,90.81,129.27,70.31,124.74,324.32,Single-ply,SBD,M
Boys,99.79,17,Ezavian Franklin,Dallas Life Oak Cliff,90.81,129.27,70.31,124.74,324.32,Single-ply,SBD,M
Boys,99.79,18,Tanner Hall,Van Alstyne,99.79,124.74,74.84,122.47,322.05,Single-ply,SBD,M
Boys,99.79,DQ,Ben Howe,Lake Dallas,99.79,,,,,Single-ply,SBD,M
Boys,99.79,DQ,Ray Vega,Krum,99.79,,,,,Single-ply,SBD,M
Boys,99.79,DQ,Carlos Ponce,Krum,99.79,,,,,Single-ply,SBD,M
Boys,99.79,DQ,Oscar Morenas,Ferris,93.89,183.7,,158.76,,Single-ply,SBD,M
Boys,109.77,DQ,John Parsons,Lake Dallas,99.97,176.9,,183.7,,Single-ply,SBD,M
Boys,99.79,DQ,Skyler Hodges,Krum,99.79,,88.45,158.76,,Single-ply,SBD,M
Boys,99.79,DQ,Chance Bledsoe,Krum,97.43,,86.18,138.35,,Single-ply,SBD,M
Boys,99.79,DQ,John Embry,Lucas Lovejoy,96.52,163.29,,158.76,,Single-ply,SBD,M
Boys,99.79,DQ,Kris Medlin,Van Alstyne,93.26,,,124.74,,Single-ply,SBD,M
Boys,109.77,1,Connor Counce,Denison,109.77,283.5,133.81,249.48,666.78,Single-ply,SBD,M
Boys,109.77,2,Hiram Muhammad,Lucas Lovejoy,107.59,226.8,142.88,272.16,641.83,Single-ply,SBD,M
Boys,109.77,3,Jayden Stumbaugh,Denison,109.77,215.46,142.88,219.99,578.33,Single-ply,SBD,M
Boys,109.77,4,Anthony Ringenberg,Cumby,103.87,235.87,131.54,204.12,571.53,Single-ply,SBD,M
Boys,109.77,5,Scott Blair,Anna,107.95,219.99,122.47,219.99,562.45,Single-ply,SBD,M
Boys,109.77,6,Jelanie Rainey,Lucas Lovejoy,106.14,183.7,111.13,238.14,532.97,Single-ply,SBD,M
Boys,109.77,7,Kevin Salas,Prosper,100.97,174.63,140.61,183.7,498.95,Single-ply,SBD,M
Boys,109.77,8,Esteban Martinez,Krum,108.41,204.12,104.33,183.7,492.15,Single-ply,SBD,M
Boys,109.77,9,Colton Richards,Krum,109.77,183.7,90.72,188.24,462.66,Single-ply,SBD,M
Boys,109.77,10,Thomas Schwab,Lucas Lovejoy,105.87,165.56,108.86,181.44,455.86,Single-ply,SBD,M
Boys,109.77,11,Ahmon Mayes,Prosper,108.41,161.03,102.06,181.44,444.52,Single-ply,SBD,M
Boys,109.77,12,Hunter Howard,Krum,102.69,167.83,97.52,165.56,430.91,Single-ply,SBD,M
Boys,109.77,13,Dalton Lloyd,Lucas Lovejoy,101.7,154.22,99.79,163.29,417.3,Single-ply,SBD,M
Boys,109.77,14,Sam Chambliss,Celeste,101.6,151.95,102.06,158.76,412.77,Single-ply,SBD,M
Boys,109.77,15,Gage Downing,Lucas Lovejoy,105.87,142.88,102.06,165.56,410.5,Single-ply,SBD,M
Boys,124.74,16,Dillon Chambers,Sadler S & S Cons,110,136.08,102.06,142.88,381.02,Single-ply,SBD,M
Boys,109.77,17,Ethan Lawson,Sadler S & S Cons,105.05,136.08,81.65,145.15,362.87,Single-ply,SBD,M
Boys,109.77,18,Austin Reese,Melissa,101.24,127.01,83.91,147.42,358.34,Single-ply,SBD,M
Boys,109.77,19,Jamie Drake,Dallas Life Oak Cliff,100.33,111.13,83.91,83.91,278.96,Single-ply,SBD,M
Boys,109.77,19,Jamie Drake,Dallas Life Oak Cliff,100.33,111.13,83.91,83.91,278.96,Single-ply,SBD,M
Boys,109.77,20,Adam Walker,Anna,105.23,63.5,49.9,99.79,213.19,Single-ply,SBD,M
Boys,109.77,DQ,Joseph Martin,Cumby,108.59,127.01,,165.56,,Single-ply,SBD,M
Boys,109.77,DQ,Joe Williamson,Lake Dallas,104.96,158.76,,170.1,,Single-ply,SBD,M
Boys,109.77,DQ,James Nguyen,Lucas Lovejoy,106.23,140.61,,161.03,,Single-ply,SBD,M
Boys,124.74,1,Cortez Crosby,Commerce,113.76,272.16,167.83,272.16,712.14,Single-ply,SBD,M
Boys,124.74,2,Miguel Garcia,Blue Ridge,124.74,217.72,136.08,254.01,607.81,Single-ply,SBD,M
Boys,124.74,3,Justin Bigelow,Denison,114.58,226.8,124.74,192.78,544.31,Single-ply,SBD,M
Boys,124.74,4,Dillon Gage,Sadler S & S Cons,112.31,192.78,161.03,174.63,528.44,Single-ply,SBD,M
Boys,124.74,5,Eber Hernandez,Sadler S & S Cons,113.76,197.31,122.47,208.65,528.44,Single-ply,SBD,M
Boys,124.74,6,Quinton Carroll,Dallas Life Oak Cliff,124.19,219.99,102.06,206.38,528.44,Single-ply,SBD,M
Boys,124.74,6,Quinton Carroll,Dallas Life Oak Cliff,124.19,219.99,102.06,206.38,528.44,Single-ply,SBD,M
Boys,124.74,7,Fritz Hull,Prosper,115.21,188.24,117.93,195.04,501.22,Single-ply,SBD,M
Boys,124.74,8,Dan Bluitt,Dallas Life Oak Cliff,119.75,183.7,129.27,174.63,487.61,Single-ply,SBD,M
Boys,124.74,8,Dan Bluitt,Dallas Life Oak Cliff,119.75,183.7,129.27,174.63,487.61,Single-ply,SBD,M
Boys,124.74,9,Adam Williams #5,Melissa,116.21,167.83,111.13,176.9,455.86,Single-ply,SBD,M
Boys,124.74,10,Jake Baumert,Lucas Lovejoy,117.48,147.42,113.4,170.1,430.91,Single-ply,SBD,M
Boys,124.74,11,Jesus Garcia #2,Dallas Life Oak Cliff,120.38,147.42,92.99,158.76,399.16,Single-ply,SBD,M
Boys,124.74,11,Jesus Garcia #2,Dallas Life Oak Cliff,120.38,147.42,92.99,158.76,399.16,Single-ply,SBD,M
Boys,124.74,12,Steven Rubio,Van Alstyne,115.39,142.88,83.91,151.95,378.75,Single-ply,SBD,M
Boys,124.74,13,Timothy Drone,Anna,113.85,90.72,63.5,129.27,283.5,Single-ply,SBD,M
Boys,124.74,DQ,Dario Richardson,Dallas Life Oak Cliff,121.56,,,,,Single-ply,SBD,M
Boys,124.74,DQ,Dario Richardson,Dallas Life Oak Cliff,121.56,,,,,Single-ply,SBD,M
Boys,124.74,DQ,Matt Guerra,Ferris,113.85,244.94,,,,Single-ply,SBD,M
Boys,124.74,DQ,Travis Fredrickson,Lake Dallas,116.3,,68.04,136.08,,Single-ply,SBD,M
Boys,124.74+,1,John Laubacher,Lake Dallas,149.69,226.8,149.69,165.56,542.04,Single-ply,SBD,M
Boys,124.74+,2,Cameron Adkins,Leonard,131.09,206.38,113.4,210.92,530.7,Single-ply,SBD,M
Boys,124.74+,3,Dylan Bain,Lucas Lovejoy,136.62,190.51,129.27,174.63,494.42,Single-ply,SBD,M
Boys,124.74+,DQ,Julian Drake,Dallas Life Oak Cliff,126.37,,,,,Single-ply,SBD,M
Boys,124.74+,DQ,Julian Drake,Dallas Life Oak Cliff,126.37,,,,,Single-ply,SBD,M
Boys,124.74+,DQ,Jacob Barton,Callisburg,128.19,,161.03,208.65,,Single-ply,SBD,M
Boys,124.74+,DQ,Teddy Wiley,Krum,130.45,,79.38,,,Single-ply,SBD,M
Boys,124.74+,DQ,Blake Cunningham,Denison,136.53,170.1,,179.17,,Single-ply,SBD,M
Boys,,NS,Rod Jackson,Commerce,,,,,,Single-ply,SBD,M
