Division,WeightClassKg,Place,Name,Team,BodyweightKg,Best3SquatKg,Best3BenchKg,Best3DeadliftKg,TotalKg,Equipment,Event,Sex
Boys,51.71,1,Justin Lindsey,Kennedale,51.07,195.04,102.06,170.1,467.2,Single-ply,SBD,M
Boys,51.71,2,Jace Duncan,Mineral Wells,50.67,124.74,83.91,142.88,351.53,Single-ply,SBD,M
Boys,51.71,3,Nick Kiser,Iowa Park,50.98,122.47,77.11,142.88,342.46,Single-ply,SBD,M
Boys,51.71,4,Alexis Rodriguez #8,Decatur,51.44,122.47,61.23,131.54,315.25,Single-ply,SBD,M
Boys,51.71,5,Gavin Ruiz,Gainesville,51.35,124.74,58.97,111.13,294.84,Single-ply,SBD,M
Boys,51.71,6,Brandon Horst,Sanger,45.54,111.13,54.43,108.86,274.42,Single-ply,SBD,M
Boys,51.71,7,Javan Lopez,Lake Worth,46.31,102.06,52.16,102.06,256.28,Single-ply,SBD,M
Boys,51.71,8,Noah Duvall,Springtown,48.81,92.99,56.7,106.59,256.28,Single-ply,SBD,M
Boys,51.71,9,Carlos Fuentes,Graham,50.12,88.45,54.43,102.06,244.94,Single-ply,SBD,M
Boys,51.71,10,Charlie Newman,Aubrey,47.58,95.25,45.36,102.06,242.67,Single-ply,SBD,M
Boys,55.79,1,Ryan Thomas,Iowa Park,54.88,165.56,113.4,195.04,474,Single-ply,SBD,M
Boys,55.79,2,Trey Good,Anna,55.47,167.83,81.65,149.69,399.16,Single-ply,SBD,M
Boys,55.79,3,Jahlian Tate,Graham,55.61,131.54,74.84,149.69,356.07,Single-ply,SBD,M
Boys,55.79,4,Dalton Parfait,Bonham,55.52,142.88,83.91,117.93,344.73,Single-ply,SBD,M
Boys,55.79,5,Dallas Elmore,Graham,55.57,124.74,74.84,142.88,342.46,Single-ply,SBD,M
Boys,55.79,6,Martin Palomino,Lake Worth,55.34,133.81,65.77,140.61,340.19,Single-ply,SBD,M
Boys,55.79,7,Anthony Perez,Bridgeport,54.48,113.4,77.11,138.35,328.85,Single-ply,SBD,M
Boys,55.79,8,Omar Villegas,Melissa,55.79,122.47,70.31,124.74,317.51,Single-ply,SBD,M
Boys,55.79,DQ,Hayden Stevenson,Bonham,55.11,149.69,,,,Single-ply,SBD,M
Boys,55.79,DQ,Tristan Wilson,Graham,55.66,122.47,68.04,,,Single-ply,SBD,M
Boys,59.87,1,Dalton Adkins,Iowa Park,59.06,185.97,122.47,181.44,489.88,Single-ply,SBD,M
Boys,59.87,2,Angel Garza,Decatur,59.19,161.03,86.18,176.9,424.11,Single-ply,SBD,M
Boys,59.87,3,Marc Lara,Decatur,59.33,167.83,77.11,170.1,415.04,Single-ply,SBD,M
Boys,59.87,4,Dalton Waller,Princeton,58.24,142.88,90.72,165.56,399.16,Single-ply,SBD,M
Boys,59.87,5,Luis Franco,Princeton,58.01,147.42,83.91,154.22,385.55,Single-ply,SBD,M
Boys,59.87,6,Cesar Acosta,Decatur,59.06,142.88,86.18,129.27,358.34,Single-ply,SBD,M
Boys,59.87,7,Tyler Watts,Sanger,58.79,136.08,77.11,140.61,353.8,Single-ply,SBD,M
Boys,59.87,8,Lorenzo Novoa,Lake Worth,59.83,124.74,81.65,147.42,353.8,Single-ply,SBD,M
Boys,59.87,9,Casey Fung,Iowa Park,58.24,136.08,74.84,136.08,347,Single-ply,SBD,M
Boys,59.87,10,Adrian Tostado,Sanger,58.24,140.61,77.11,122.47,340.19,Single-ply,SBD,M
Boys,59.87,11,Christian Gauthier,Burkburnett,59.6,117.93,79.38,142.88,340.19,Single-ply,SBD,M
Boys,59.87,12,Jose de la Cerda,Bridgeport,58.74,117.93,77.11,136.08,331.12,Single-ply,SBD,M
Boys,67.13,1,Grant Carter,Sanger,64.82,179.17,127.01,197.31,503.49,Single-ply,SBD,M
Boys,67.13,2,John Mitchell #2,Kennedale,65.63,185.97,106.59,195.04,487.61,Single-ply,SBD,M
Boys,67.13,3,Johnathan Venable,Anna,61.69,181.44,117.93,185.97,485.34,Single-ply,SBD,M
Boys,67.13,4,Stephen Linares,Kennedale,65.86,199.58,97.52,185.97,483.08,Single-ply,SBD,M
Boys,67.13,5,Cole Owens,Bonham,64.36,190.51,97.52,190.51,478.54,Single-ply,SBD,M
Boys,67.13,6,Justin Taylor,Decatur,67.13,181.44,111.13,172.37,464.93,Single-ply,SBD,M
Boys,67.13,7,Eli Shields,Bonham,66,188.24,95.25,172.37,455.86,Single-ply,SBD,M
Boys,67.13,8,Leo Sustaita,Gainesville,66.41,172.37,95.25,185.97,453.59,Single-ply,SBD,M
Boys,67.13,9,Luis Ramírez,Aubrey,65.5,165.56,90.72,192.78,449.06,Single-ply,SBD,M
Boys,67.13,10,Talon Hise,Iowa Park,65.77,158.76,102.06,170.1,430.91,Single-ply,SBD,M
Boys,67.13,DQ,Nathaniel Downing,Wichita Falls Hirschi,65.41,,,,,Single-ply,SBD,M
Boys,67.13,DQ,Zachary Downing,Wichita Falls Hirschi,64.09,,,,,Single-ply,SBD,M
Boys,74.84,1,Ty Slaughter,Anna,73.66,260.82,165.56,235.87,662.24,Single-ply,SBD,M
Boys,74.84,2,Dillon McAlister,Bridgeport,74.8,204.12,120.2,242.67,566.99,Single-ply,SBD,M
Boys,74.84,3,Evan Wilson,Bonham,74.03,204.12,115.67,231.33,551.11,Single-ply,SBD,M
Boys,74.84,4,Brandon Garza,Decatur,70.76,219.99,124.74,199.58,544.31,Single-ply,SBD,M
Boys,74.84,5,Nate McLemore,Iowa Park,74.57,204.12,145.15,181.44,530.7,Single-ply,SBD,M
Boys,74.84,6,Nick Golden,Argyle,74.39,195.04,90.72,229.06,514.83,Single-ply,SBD,M
Boys,74.84,7,Austin Ballard,Bonham,71.4,190.51,106.59,201.85,498.95,Single-ply,SBD,M
Boys,74.84,8,Pablo Vera,Aubrey,72.71,204.12,113.4,176.9,494.42,Single-ply,SBD,M
Boys,74.84,9,Shingi Maraire,Aubrey,72.8,195.04,90.72,197.31,483.08,Single-ply,SBD,M
Boys,74.84,10,Dusty Burris,Princeton,73.3,165.56,136.08,176.9,478.54,Single-ply,SBD,M
Boys,74.84,11,Parker Taylor,Argyle,74.21,183.7,92.99,199.58,476.27,Single-ply,SBD,M
Boys,74.84,DQ,Jesus Gam,Decatur,71.58,170.1,97.52,,,Single-ply,SBD,M
Boys,82.1,1,Dre Gresham,Iowa Park,80.33,215.46,133.81,219.99,569.26,Single-ply,SBD,M
Boys,82.1,2,Griffin Balthrop,Castleberry,81.51,197.31,133.81,238.14,569.26,Single-ply,SBD,M
Boys,82.1,3,Payton McAlister,Decatur,78.43,195.04,127.01,226.8,548.85,Single-ply,SBD,M
Boys,82.1,4,Isaiah White,Wichita Falls Hirschi,76.2,215.46,113.4,188.24,517.1,Single-ply,SBD,M
Boys,82.1,5,Billy Goff,Sanger,80.56,185.97,124.74,204.12,514.83,Single-ply,SBD,M
Boys,82.1,6,Tyler Campbell,Iowa Park,80.83,183.7,117.93,204.12,505.76,Single-ply,SBD,M
Boys,82.1,7,Tyler Durst,Princeton,78.34,190.51,122.47,185.97,498.95,Single-ply,SBD,M
Boys,82.1,8,Harrison Haney,Decatur,81.24,199.58,102.06,195.04,496.68,Single-ply,SBD,M
Boys,82.1,9,Mark Thomas,Decatur,75.98,179.17,99.79,210.92,489.88,Single-ply,SBD,M
Boys,82.1,10,Caleb Ledoux,Bonham,79.56,199.58,106.59,183.7,489.88,Single-ply,SBD,M
Boys,82.1,11,Montana Harthcock,Springtown,78.2,188.24,90.72,208.65,487.61,Single-ply,SBD,M
Boys,82.1,DQ,Reece Miller,Bonham,80.1,,,,,Single-ply,SBD,M
Boys,82.1,DQ,Jessy Upchurch,Burkburnett,81.1,192.78,140.61,,,Single-ply,SBD,M
Boys,89.81,1,Abel Barboza,Castleberry,87,251.74,136.08,251.74,639.57,Single-ply,SBD,M
Boys,89.81,2,Kevin Williams,Aubrey,89.36,226.8,145.15,242.67,614.62,Single-ply,SBD,M
Boys,89.81,3,Joel Jones,Graham,86.09,244.94,133.81,233.6,612.35,Single-ply,SBD,M
Boys,89.81,4,Dakota Carpenter,Argyle,88.09,213.19,127.01,242.67,582.87,Single-ply,SBD,M
Boys,89.81,5,Miguel Monjaras,Castleberry,89.77,201.85,138.35,240.4,580.6,Single-ply,SBD,M
Boys,89.81,6,Roman Turner,Wichita Falls Hirschi,83.78,208.65,136.08,215.46,560.19,Single-ply,SBD,M
Boys,89.81,7,Adrian Arthur,Wichita Falls Hirschi,88.72,213.19,120.2,219.99,553.38,Single-ply,SBD,M
Boys,89.81,8,Adrian Cantu,Decatur,89.27,204.12,115.67,215.46,535.24,Single-ply,SBD,M
Boys,89.81,9,Walynn Williams,Iowa Park,88.36,215.46,127.01,185.97,528.44,Single-ply,SBD,M
Boys,89.81,10,Guillermo Pando,Springtown,87,204.12,120.2,192.78,517.1,Single-ply,SBD,M
Boys,89.81,11,Justin Elmore,Graham,88.63,179.17,124.74,172.37,476.27,Single-ply,SBD,M
Boys,89.81,DQ,Wriley Russell,Springtown,87.41,210.92,,,,Single-ply,SBD,M
Boys,99.79,1,Jarrod Huther,Sanger,93.49,231.33,181.44,244.94,657.71,Single-ply,SBD,M
Boys,99.79,2,Colton Hall,Kennedale,98.75,244.94,142.88,242.67,630.49,Single-ply,SBD,M
Boys,99.79,3,Johnny Morales,Mineral Wells,91.94,249.48,149.69,229.06,628.23,Single-ply,SBD,M
Boys,99.79,4,Chance Pierce,Bridgeport,97.34,201.85,149.69,249.48,601.01,Single-ply,SBD,M
Boys,99.79,5,Hunter Bagley,Iowa Park,97.34,226.8,127.01,233.6,587.4,Single-ply,SBD,M
Boys,99.79,6,Junior Hernandez,Princeton,90.04,217.72,138.35,210.92,566.99,Single-ply,SBD,M
Boys,99.79,7,Jason Escobedo,Lake Worth,94.85,208.65,136.08,204.12,548.85,Single-ply,SBD,M
Boys,99.79,8,Branden Brewer,Iowa Park,95.21,204.12,111.13,204.12,519.36,Single-ply,SBD,M
Boys,99.79,9,Jesse Cowley,Nevada Community,94.39,183.7,108.86,183.7,476.27,Single-ply,SBD,M
Boys,99.79,DQ,Mason Chapa,Castleberry,92.44,201.85,120.2,,,Single-ply,SBD,M
Boys,109.77,1,Baron Browning,Kennedale,103.83,244.94,154.22,265.35,664.51,Single-ply,SBD,M
Boys,109.77,2,Matt Naugle,Kennedale,106.32,251.74,156.49,240.4,648.64,Single-ply,SBD,M
Boys,109.77,3,Jacob Boyd,Mineral Wells,107.46,238.14,172.37,238.14,648.64,Single-ply,SBD,M
Boys,109.77,4,Ryan Langley,Sanger,108.36,272.16,165.56,208.65,646.37,Single-ply,SBD,M
Boys,109.77,5,Frederico Arvizu,Castleberry,109.77,263.08,136.08,247.21,646.37,Single-ply,SBD,M
Boys,109.77,6,Jonathan Havis,Sanger,102.92,244.94,154.22,233.6,632.76,Single-ply,SBD,M
Boys,109.77,7,Wilson Tran,Gainesville,108.18,235.87,124.74,213.19,573.79,Single-ply,SBD,M
Boys,109.77,8,Asael Lagos,Gainesville,109.13,233.6,124.74,215.46,573.79,Single-ply,SBD,M
Boys,109.77,9,David Palacios,Graham,103.37,229.06,108.86,215.46,553.38,Single-ply,SBD,M
Boys,109.77,10,Brandon Miller,Bonham,104.51,213.19,120.2,210.92,544.31,Single-ply,SBD,M
Boys,109.77,11,Bradley Aaron,Mineral Wells,105.91,215.46,136.08,192.78,544.31,Single-ply,SBD,M
Boys,109.77,12,Nathan Ellison,Aubrey,109.54,188.24,136.08,213.19,537.51,Single-ply,SBD,M
Boys,124.74,1,Jerry Daniel,Nevada Community,124.47,288.03,165.56,265.35,718.94,Single-ply,SBD,M
Boys,124.74,2,Manny Rodriguez,Gainesville,123.56,285.76,156.49,242.67,684.92,Single-ply,SBD,M
Boys,124.74,3,Terry Lee Hogan,Decatur,113.26,247.21,149.69,249.48,646.37,Single-ply,SBD,M
Boys,124.74,4,Adam Dyer,Argyle,120.56,260.82,124.74,258.55,644.1,Single-ply,SBD,M
Boys,124.74,5,Shawn Wheat,Bridgeport,122.24,258.55,154.22,226.8,639.57,Single-ply,SBD,M
Boys,124.74,6,Keylynn Rushing,Princeton,122.97,229.06,167.83,242.67,639.57,Single-ply,SBD,M
Boys,124.74,7,Jacob Boswell,Burkburnett,119.52,260.82,147.42,226.8,635.03,Single-ply,SBD,M
Boys,124.74,8,Matt Beale,Graham,119.25,244.94,161.03,222.26,628.23,Single-ply,SBD,M
Boys,124.74,9,Aaron Hite,Mineral Wells,112.67,249.48,133.81,226.8,610.08,Single-ply,SBD,M
Boys,124.74,10,Daniel Dowling,Bonham,117.75,256.28,142.88,192.78,591.94,Single-ply,SBD,M
Boys,124.74,11,Erick Stonecheck,Bridgeport,123.1,213.19,145.15,204.12,562.45,Single-ply,SBD,M
Boys,124.74,DQ,Edgar Ramirez,Wichita Falls Hirschi,118.39,,,,,Single-ply,SBD,M
Boys,124.74+,1,Erik Deleon,Gainesville,133.36,285.76,174.63,235.87,696.26,Single-ply,SBD,M
Boys,124.74+,2,Jesse Springfield,Springtown,128.32,278.96,151.95,256.28,687.19,Single-ply,SBD,M
Boys,124.74+,3,Gjemar Daniels,Kennedale,143.61,265.35,167.83,254.01,687.19,Single-ply,SBD,M
Boys,124.74+,4,Travis Shouse,Anna,135.13,285.76,158.76,226.8,671.32,Single-ply,SBD,M
Boys,124.74+,5,Mike Grimes,Princeton,155.76,242.67,188.24,213.19,644.1,Single-ply,SBD,M
Boys,124.74+,6,Caleb Jennings,Bridgeport,146.06,235.87,154.22,215.46,605.55,Single-ply,SBD,M
Boys,124.74+,7,Johnny Zielinski,Kennedale,125.06,247.21,140.61,192.78,580.6,Single-ply,SBD,M
Boys,124.74+,8,CJ Mendoza #2,Carrollton Ranchview,140.98,217.72,122.47,233.6,573.79,Single-ply,SBD,M
Boys,124.74+,9,Miguel Rodriguez,Gainesville,126.87,233.6,120.2,192.78,546.58,Single-ply,SBD,M
Boys,124.74+,10,Max Hahn,Carrollton Ranchview,129.23,197.31,108.86,226.8,532.97,Single-ply,SBD,M
Boys,124.74+,11,Zane Howard,Krum,125.83,206.38,113.4,174.63,494.42,Single-ply,SBD,M
