Place,Name,Sex,BirthDate,BirthYear,Age,State,Country,Equipment,Division,BodyweightKg,WeightClassKg,Squat1Kg,Squat2Kg,Squat3Kg,Best3SquatKg,Bench1Kg,Bench2Kg,Bench3Kg,Best3BenchKg,Deadlift1Kg,Deadlift2Kg,Deadlift3Kg,Best3DeadliftKg,TotalKg,Event
1,Rebecca Heath,F,,1977,44,GL,England,Raw,FR-M1,46.6,47,102.5,110,115,115,60,65,67.5,67.5,117.5,127.5,132.5,132.5,315,SBD
1,Cat Shamel,F,,1977,43,WM,England,Raw,FR-M1,55.8,57,115,117.5,122.5,122.5,72.5,-77.5,77.5,77.5,142.5,152.5,160,160,360,SBD
2,Win-yei Yau,F,,1988,33,SW,England,Raw,FR-O,55.3,57,107.5,115,-122.5,115,62.5,-67.5,-67.5,62.5,135,145,155,155,332.5,SBD
3,Isabelle Jaya-Wickrema,F,,1998,23,SW,England,Raw,FR-Jr,56.7,57,107.5,115,117.5,117.5,70,-75,75,75,127.5,135,-140,135,327.5,SBD
1,Charlotte MacPherson,F,,1995,26,EM,England,Raw,FR-O,63,63,140,145,,145,90,95,,95,150,160,,160,400,SBD
2,Catherine Phipps,F,,1990,31,SM,England,Raw,FR-O,62.4,63,120,-130,135,135,70,75,-80,75,155,162.5,167.5,167.5,377.5,SBD
3,Suzanne Daniel,F,,1997,24,SE,England,Raw,FR-O,62.4,63,125,,,125,75,,,75,175,,,175,375,SBD
4,Sophie Smith #1,F,,1999,22,SM,England,Raw,FR-Jr,62.7,63,112.5,120,-122.5,120,70,77.5,80,80,147.5,157.5,165,165,365,SBD
5,Luisa Vargas,F,,1996,25,GL,England,Raw,FR-O,62.6,63,110,115,-117.5,115,65,-67.5,67.5,67.5,155,-162.5,162.5,162.5,345,SBD
6,Lauren Skeates,F,,2002,19,SW,England,Raw,FR-Jr,61.7,63,100,107.5,112.5,112.5,55,60,62.5,62.5,135,142.5,147.5,147.5,322.5,SBD
7,Molly Brennand-Duxbury,F,,2001,19,SE,England,Raw,FR-Jr,61.9,63,85,90,-95,90,57.5,60,-62.5,60,115,120,-125,120,270,SBD
8,Megan Heaton-Harris,F,,1996,25,GL,England,Raw,FR-O,61.6,63,77.5,-82.5,82.5,82.5,50,-52.5,52.5,52.5,100,107.5,-112.5,107.5,242.5,SBD
1,Katie Roberts,F,,1989,32,,Wales,Raw,FR-O,67.5,69,110,122.5,-132.5,122.5,100,105,-110,105,120,130,142.5,142.5,370,SBD
2,Nasreen Ahmed Brooker,F,,1983,38,WM,England,Raw,FR-O,66.4,69,112.5,117.5,122.5,122.5,60,62.5,65,65,142.5,152.5,160,160,347.5,SBD
3,Drew Fackrell,F,,1997,24,SW,England,Raw,FR-O,66.5,69,115,122.5,130,130,67.5,72.5,-75,72.5,132.5,142.5,-150,142.5,345,SBD
4,Yanou Athineos,F,,1995,26,SW,England,Raw,FR-O,68,69,110,120,-130,120,57.5,60,62.5,62.5,130,150,160,160,342.5,SBD
5,Natalie Lella,F,,1978,43,SM,England,Raw,FR-M1,66.5,69,-100,100,110,110,60,62.5,65,65,135,145,150,150,325,SBD
6,Mollie Hall,F,,1997,24,SM,England,Raw,FR-O,68.9,69,100,107.5,112.5,112.5,57.5,65,-70,65,120,132.5,-145,132.5,310,SBD
7,Hannah Cheney,F,,1997,24,SW,England,Raw,FR-O,66.7,69,90,95,100,100,50,52.5,-55,52.5,125,130,135,135,287.5,SBD
8,Sarah Nicholls,F,,1983,38,SW,England,Raw,FR-O,63.7,69,75,82.5,92.5,92.5,55,62.5,67.5,67.5,80,90,105,105,265,SBD
9,Bethany Carter,F,,1995,26,SW,England,Raw,FR-O,68.2,69,70,77.5,82.5,82.5,35,40,42.5,42.5,95,105,110,110,235,SBD
1,Lianne Brook,F,,1990,31,WM,England,Raw,FR-O,75.1,76,135,142.5,147.5,147.5,75,80,-82.5,80,162.5,172.5,-180,172.5,400,SBD
2,Millie Mabbutt,F,,2001,20,SW,England,Raw,FR-Jr,71.8,76,132.5,140,145,145,65,70,-72.5,70,140,150,-152.5,150,365,SBD
3,Amy-Rose Deffley,F,,1986,35,WM,England,Raw,FR-O,75.6,76,122.5,132.5,137.5,137.5,60,-65,65,65,145,157.5,-160,157.5,360,SBD
4,Imogen Fenner,F,,1996,25,SW,England,Raw,FR-O,74.6,76,112.5,120,125,125,57.5,62.5,65,65,110,120,125,125,315,SBD
5,Beth Taylor #1,F,,2000,21,SW,England,Raw,FR-Jr,73.2,76,90,97.5,105,105,50,55,57.5,57.5,110,117.5,125,125,287.5,SBD
6,Aparna Prabhu,F,,1976,45,SM,England,Raw,FR-M1,75.5,76,82.5,87.5,92.5,92.5,40,45,-50,45,100,110,120,120,257.5,SBD
1,Ziana Azariah,F,,1997,24,SW,England,Raw,FR-O,83.5,84,170,185,190,190,75,82.5,85,85,195,212.5,217.5,217.5,492.5,SBD
2,Nicola Stimpson,F,,1986,35,SM,England,Raw,FR-O,83.1,84,180,192.5,205,205,80,85,90,90,182.5,192.5,-202.5,192.5,487.5,SBD
3,Harriet Waite,F,,2001,20,EM,England,Raw,FR-Jr,82.2,84,150,-160,-160,150,65,70,72.5,72.5,155,167.5,-172.5,167.5,390,SBD
4,Haleema Almahdawi,F,,1999,22,WM,England,Raw,FR-Jr,83.3,84,130,-140,-145,130,60,65,-67.5,65,135,145,-150,145,340,SBD
1,Kate Sweatman,F,,1985,36,EM,England,Raw,FR-O,126.8,84+,160,170,180,180,100,107.5,112.5,112.5,150,160,-167.5,160,452.5,SBD
2,Leanne Lambert,F,,1992,29,SW,England,Raw,FR-O,104.9,84+,147.5,160,167.5,167.5,67.5,72.5,-75,72.5,150,165,167.5,167.5,407.5,SBD
3,Sarah Abernethy,F,,1985,36,SM,England,Raw,FR-O,93.3,84+,120,130,135,135,60,67.5,75,75,125,135,150,150,360,SBD
4,Jacqueline Tilley,F,,1970,51,SW,England,Raw,FR-M2,111.2,84+,117.5,125,130,130,67.5,72.5,77.5,77.5,135,142.5,150,150,357.5,SBD
1,Rachel Steedman,F,,1995,26,,Scotland,Raw,FR-O,69.6,76,,,,,62.5,70,75,75,,,,,75,B
1,Shaun Bateman,M,,1967,53,SW,England,Raw,MR-M2,58.3,59,127.5,137.5,142.5,142.5,95,100,102.5,102.5,165,175,185,185,430,SBD
1,Kai Barnett,M,,1998,23,SW,England,Raw,MR-Jr,65.9,66,145,160,172.5,172.5,105,-112.5,-117.5,105,185,197.5,212.5,212.5,490,SBD
2,Will Horsley,M,,1998,23,SW,England,Raw,MR-Jr,65.4,66,140,147.5,155,155,105,112.5,-117.5,112.5,165,175,-180,175,442.5,SBD
3,Jack Whitaker,M,,2005,16,SW,England,Raw,MR-Sj,63.3,66,127.5,132.5,137.5,137.5,67.5,72.5,75,75,165,172.5,180,180,392.5,SBD
1,Joseph Clossick,M,,2000,21,NW,England,Raw,MR-Jr,73.2,74,190,200,210,210,115,-122.5,122.5,122.5,-230,245,-255,245,577.5,SBD
2,Brynley Ruskin,M,,2001,20,SW,England,Raw,MR-Jr,72.4,74,-160,160,170,170,110,120,127.5,127.5,185,205,-210,205,502.5,SBD
3,Ethan Ruskin,M,,2001,20,SW,England,Raw,MR-Jr,71.7,74,150,155,162.5,162.5,110,117.5,-120,117.5,170,185,192.5,192.5,472.5,SBD
4,Nash Hunter,M,,1979,42,EM,England,Raw,MR-M1,71.8,74,135,142.5,147.5,147.5,97.5,102.5,105,105,190,205,210,210,462.5,SBD
5,Claudio Lubis,M,,1998,23,SE,England,Raw,MR-Jr,67.7,74,130,135,140,140,90,95,100,100,190,195,200,200,440,SBD
6,Ka Kong,M,,1998,23,SW,England,Raw,MR-Jr,72.7,74,150,160,-172.5,160,90,100,-105,100,-180,-180,180,180,440,SBD
7,Benjamin Charlton,M,,2002,19,WM,England,Raw,MR-Jr,72.9,74,120,130,142.5,142.5,95,-100,100,100,157.5,165,172.5,172.5,415,SBD
8,Gabi Haver,M,,2001,20,WM,England,Raw,MR-Jr,70.7,74,135,142.5,-150,142.5,70,82.5,-90,82.5,170,185,-210,185,410,SBD
9,Sean Moroney,M,,1972,49,SW,England,Raw,MR-M1,73,74,110,120,130,130,80,85,-95,85,160,172.5,180,180,395,SBD
1,Saheed Aregbe,M,,1993,28,SE,England,Raw,MR-O,82.3,83,-210,210,230,230,160,167.5,-172.5,167.5,310,335,350,350,747.5,SBD
2,Lee Copp,M,,1993,27,SW,England,Raw,MR-O,81,83,220,232.5,240,240,140,147.5,150,150,240,260,-272.5,260,650,SBD
3,Dylan Affum,M,,2000,20,GL,England,Raw,MR-Jr,76.2,83,160,170,177.5,177.5,120,125,130,130,225,240,-245,240,547.5,SBD
4,Olly Turner,M,,1996,25,SW,England,Raw,MR-O,75.1,83,167.5,175,-182.5,175,120,127.5,-135,127.5,210,220,232.5,232.5,535,SBD
5,Jonathan Klein,M,,2001,20,WM,England,Raw,MR-Jr,81,83,165,175,185,185,105,-110,110,110,205,215,230,230,525,SBD
6,Joshua Funnell,M,,2005,15,EM,England,Raw,MR-Sj,81.2,83,160,170,185,185,112.5,122.5,130,130,200,-215,-225,200,515,SBD
7,Alfie Mason,M,,2004,17,SE,England,Raw,MR-Sj,79.1,83,175,182.5,190,190,100,-105,107.5,107.5,205,210,215,215,512.5,SBD
8,Jordan Bonaparte,M,,1989,32,GL,England,Raw,MR-O,80.3,83,165,-175,175,175,110,120,127.5,127.5,165,185,200,200,502.5,SBD
9,Herbert Eyres,M,,2002,19,SW,England,Raw,MR-Jr,80.8,83,145,160,170,170,97.5,105,110,110,195,210,-215,210,490,SBD
10,Louie Warren,M,,2000,21,SW,England,Raw,MR-Jr,78.7,83,157.5,167.5,-175,167.5,92.5,-95,95,95,195,205,215,215,477.5,SBD
11,David Horne,M,,1967,54,SM,England,Raw,MR-M2,81.3,83,140,-152.5,152.5,152.5,100,105,110,110,190,205,215,215,477.5,SBD
12,Lee Powell,M,,1983,38,SM,England,Raw,MR-O,81.5,83,-130,130,-140,130,95,105,-112.5,105,170,180,-190,180,415,SBD
1,Francis Ojemere,M,,1997,24,SW,England,Raw,MR-O,91.1,93,245,260,265,265,155,162.5,167.5,167.5,300,320,325,325,757.5,SBD
2,Christopher Teague,M,,1991,30,WM,England,Raw,MR-O,92.7,93,255,265,272.5,272.5,192.5,-200,-200,192.5,255,272.5,-280,272.5,737.5,SBD
3,Scott Webb,M,,1997,24,SW,England,Raw,MR-O,86.8,93,245,255,265,265,140,147.5,155,155,260,275,285,285,705,SBD
4,Ollie Eyres,M,,1997,24,SW,England,Raw,MR-O,92,93,215,230,245,245,127.5,135,-142.5,135,265,285,-300,285,665,SBD
5,George Funnell,M,,2002,19,EM,England,Raw,MR-Jr,91.9,93,215,225,230,230,140,145,150,150,217.5,232.5,245,245,625,SBD
6,Jasper Campbell-Crocker,M,,2001,20,SW,England,Raw,MR-Jr,91.4,93,192.5,202.5,210,210,127.5,135,137.5,137.5,235,250,265,265,612.5,SBD
7,Ed Rimell,M,,2001,19,,Wales,Raw,MR-Jr,85.7,93,202.5,210,215,215,140,145,152.5,152.5,225,237.5,242.5,242.5,610,SBD
8,Sam Kenyon,M,,1996,25,SM,England,Raw,MR-O,89.5,93,195,205,215,215,130,137.5,142.5,142.5,220,235,250,250,607.5,SBD
9,Jonathan Peebles,M,,1999,22,SW,England,Raw,MR-Jr,89.8,93,195,207.5,212.5,212.5,117.5,125,132.5,132.5,227.5,240,255,255,600,SBD
10,Connor Smith #1,M,,1993,28,NW,England,Raw,MR-O,92.5,93,-180,197.5,202.5,202.5,140,-157.5,157.5,157.5,200,215,222.5,222.5,582.5,SBD
11,Ryan Anderson,M,,1990,31,GL,England,Raw,MR-O,90.1,93,195,205,212.5,212.5,137.5,145,152.5,152.5,202.5,215,-222.5,215,580,SBD
12,Kiran Pick,M,,2000,21,WM,England,Raw,MR-Jr,90.8,93,180,192.5,200,200,107.5,112.5,117.5,117.5,220,235,250,250,567.5,SBD
13,Nathaniel Woodbridge,M,,2002,19,WM,England,Raw,MR-Jr,86.7,93,170,-177.5,177.5,177.5,120,-127.5,-127.5,120,-207.5,220,230,230,527.5,SBD
14,Umar Ahmed,M,,1997,24,WM,England,Raw,MR-O,90.1,93,-180,190,-200,190,100,110,-120,110,200,225,-230,225,525,SBD
1,Michael Tennant,M,,1995,26,SE,England,Raw,MR-O,103.1,105,240,255,265,265,-160,167.5,172.5,172.5,305,335,342.5,342.5,780,SBD
2,Jack Presley,M,,2001,20,SW,England,Raw,MR-Jr,99.2,105,230,-240,240,240,145,-150,150,150,260,270,-280,270,660,SBD
3,Joe Abernethy,M,,1986,35,SM,England,Raw,MR-O,95.8,105,150,160,-165,160,85,90,92.5,92.5,170,177.5,185,185,437.5,SBD
4,George Jones,M,,2000,21,NW,England,Raw,MR-Jr,97.5,105,130,137.5,145,145,90,95,100,100,160,170,175,175,420,SBD
1,Chris McKeegan,M,,1982,39,SW,England,Raw,MR-O,113.9,120,210,222.5,235,235,135,145,-155,145,235,247.5,265,265,645,SBD
2,Alex Brunskill,M,,1981,40,SW,England,Raw,MR-M1,113.1,120,180,190,200,200,115,125,-130,125,-210,210,230,230,555,SBD
1,Jason Haskins,M,,1988,33,SW,England,Raw,MR-O,157.6,120+,300,315,330,330,175,185,195,195,280,300,320,320,845,SBD
1,Harvey Robinson,M,,1995,26,EM,England,Raw,MR-O,118.5,120,,,,,200,210,-215,210,,,,,210,B
