Place,Name,Sex,BirthDate,Age,State,Equipment,Division,BodyweightKg,WeightClassKg,Squat1Kg,Squat2Kg,Squat3Kg,Squat4Kg,Best3SquatKg,Bench1Kg,Bench2Kg,Bench3Kg,Bench4Kg,Best3BenchKg,Deadlift1Kg,Deadlift2Kg,Deadlift3Kg,Deadlift4Kg,Best3DeadliftKg,TotalKg,Event
1,Shalagh O'Brien,F,1999-09-27,,AB,Raw,J20-23,62.7,67.5,125,132.5,137.5,,137.5,60,65,-67.5,,65,125,130,137.5,,137.5,340,SBD
1,Rachel Peterson,F,1999-04-15,22,AB,Raw,J20-23,77.8,82.5,82.5,92.5,102.5,,102.5,47.5,57.5,-62.5,,57.5,100,120,-130,,120,280,SBD
1,Teresa Byam,F,1979-12-08,41,AB,Raw,M40-44,80.4,82.5,112.5,125,-140,,125,70,75,-80,,75,135,155,160,-165,160,360,SBD
1,Trina Hampton,F,1977-12-14,43,AB,Wraps,M40-44,87.9,90,107.5,-112.5,112.5,115,112.5,50,55,-57.5,,55,-130,130,132.5,137.5,132.5,300,SBD
1,Lara Christie,F,1969-08-12,52,AB,Wraps,M50-54,86.2,90,-107.5,107.5,-115,,107.5,-60,65,-67.5,,65,122.5,130,-137.5,,130,302.5,SBD
1,Jessica Benoit,F,1982-08-25,39,AB,Raw,Open,50.7,52,67.5,75,80,,80,40,45,47.5,,47.5,95,105,115,,115,242.5,SBD
1,Brittany Dewald,F,1992-03-26,29,AB,Wraps,Open,66.7,67.5,165,177.5,185,,185,82.5,-87.5,-87.5,,82.5,190,200,-207.5,,200,467.5,SBD
2,Sarah McCaffrey,F,1988-03-05,33,AB,Wraps,Open,65.7,67.5,177.5,182.5,187.5,,187.5,87.5,92.5,-97.5,,92.5,182.5,-187.5,-187.5,,182.5,462.5,SBD
3,Megan Bain,F,,31,AB,Wraps,Open,66.5,67.5,140,147.5,155,,155,77.5,82.5,87.5,,87.5,145,155,165,,165,407.5,SBD
4,Amanda Fahey,F,1984-09-13,,AB,Raw,Open,65.6,67.5,115,120,130,,130,65,67.5,-72.5,,67.5,167.5,172.5,-175,,172.5,370,SBD
5,Hannah Fraser,F,1991-07-28,30,AB,Wraps,Open,65.5,67.5,122.5,135,140,,140,65,70,75,,75,130,140,-150,,140,355,SBD
1,Bianca Liberatore,F,1991-11-01,30,AB,Raw,Open,73.4,75,130,140,150,,150,90,97.5,102.5,,102.5,165,175,185,,185,437.5,SBD
1,Joscelyne O'Brien,F,1997-08-25,,AB,Wraps,Open,84.5,90,125,137.5,-145,,137.5,75,82.5,-85,,82.5,145,155,-165,,155,375,SBD
2,Kimiko Thompson,F,1990-04-05,31,AB,Raw,Open,83.9,90,110,120,127.5,,127.5,65,72.5,-77.5,,72.5,147.5,162.5,172.5,,172.5,372.5,SBD
1,Robyn Faulkenham,F,1987-04-08,34,AB,Wraps,Open,98.7,90+,181,-192.5,192.5,,192.5,115.5,-125,-125,,115.5,190.5,197.5,-205,,197.5,505.5,SBD
1,Isabel Marchant,F,2004-10-31,,AB,Raw,J17-19,93.5,90+,105,-110,115,-120,115,50,52.5,57.5,-60,57.5,115,-120,-120,,115,287.5,SBD
DQ,Samantha Husak,F,1984-08-01,37,AB,Raw,Open,72.4,75,,,,,,-92.5,-102.5,-102.5,,,,,,,,,B
1,Samantha Husak,F,1984-08-01,37,AB,Raw,Open,72.4,75,,,,,,,,,,,152.5,167.5,-175,,167.5,167.5,D
1,Brandle Bruneau,M,,21,AB,Raw,J20-23,60.5,67.5,102.5,107.5,-122.5,,107.5,65,67.5,72.5,,72.5,102.5,105,112.5,,112.5,292.5,SBD
1,John Mark Nicolet,M,,22,,Wraps,J20-23,87.3,90,265,272.5,277.5,,277.5,142.5,-165,165,,165,305,317.5,-325,,317.5,760,SBD
1,Mitchell Koop,M,,23,AB,Wraps,J20-23,108.3,110,300,317.5,-335,,317.5,185,195,205,,205,300,317.5,327.5,-332.5,327.5,850,SBD
1,Samuel Utz,M,1999-03-11,22,AB,Raw,J20-23,123.7,125,180,192.5,200,,200,117.5,-127.5,135,,135,210,225,230,,230,565,SBD
1,James Audas,M,1981-10-07,40,AB,Raw,M40-44,134,140,285,307.5,320,,320,185,200,-210,,200,300,320,-330,,320,840,SBD
1,Mike McLaughlin,M,1972-04-05,49,AB,Raw,M45-49,119.6,125,200,220,230,,230,115,125,132.5,,132.5,220,230,245,,245,607.5,SBD
1,Stewart Fedorus,M,1968-08-05,53,AB,Raw,M50-54,116.6,125,162.5,177.5,187.5,190,187.5,117.5,127.5,135,-140,135,165,180,190,,190,512.5,SBD
1,Joel Janssen,M,1992-05-01,29,AB,Wraps,Open,81.6,82.5,295,315,327.5,,327.5,160,170,-175,,170,340,360,372.5,,372.5,870,SBD
1,Joe Koop,M,,25,,Wraps,Open,87.8,90,232.5,240,255,,255,142.5,157.5,-165,,157.5,245,265,-275,,265,677.5,SBD
2,Taylor Campbell,M,,31,,Wraps,Open,88.7,90,235,250,255,,255,165,-175,-175,,165,255,-265,-265,,255,675,SBD
3,Wesley Wakeford,M,1997-06-17,24,AB,Wraps,Open,87.6,90,230,245,260,,260,140,152.5,-160,,152.5,205,220,235,,235,647.5,SBD
4,Joe Baratta,M,1981-04-17,40,AB,Wraps,Open,88.4,90,200,212.5,217.5,,217.5,135,-145,145,,145,210,225,227.5,,227.5,590,SBD
1,Alexander Scory,M,1996-07-06,,AB,Wraps,Open,97.7,100,302.5,315,335,,335,192.5,205,212.5,,212.5,290,-312.5,-312.5,,290,837.5,SBD
2,Ariel Kuppers,M,1988-10-23,33,AB,Wraps,Open,95.4,100,232.5,255,260,,260,152.5,165,170,,170,310,330,-335,,330,760,SBD
3,Tyler Nimegeers,M,,31,AB,Raw,Open,99,100,227.5,235,240,,240,177.5,187.5,190,,190,262.5,-277.5,280,,280,710,SBD
4,Germanjit Randhawa,M,1989-11-09,31,AB,Raw,Open,96.3,100,135,145,155,,155,100,105,110,,110,-150,165,-175,,165,430,SBD
DQ,Paul Oneid,M,1987-11-03,,AB,Wraps,Open,98.4,100,345,-365,,,345,,,,,,,,,,,,SBD
1,Joseph Leighton,M,1993-03-15,28,AB,Raw,Open,105.6,110,290,295,-300,,295,190,205,210,,210,327.5,350,-355,,350,855,SBD
2,Alastair MacNicol,M,1987-12-15,,AB,Raw,Open,106.4,110,287.5,310,-322.5,,310,180,-195,-195,,180,310,337.5,-355,,337.5,827.5,SBD
3,Ryan Selk,M,1987-02-24,34,AB,Wraps,Open,106.2,110,295,320,330,,330,170,-180,-180,,170,295,325,,,325,825,SBD
4,Doug MacLeod,M,1989-02-20,32,AB,Wraps,Open,106.2,110,272.5,-295,300,,300,170,180,-187.5,,180,272.5,287.5,-300,,287.5,767.5,SBD
5,Maxim Gagner,M,,31,AB,Wraps,Open,108.4,110,245,260,272.5,,272.5,165,182.5,,,182.5,265,-292.5,-292.5,,265,720,SBD
6,Ryan Morgan #2,M,1998-07-20,23,AB,Wraps,Open,104.3,110,242.5,262.5,-272.5,,262.5,150,162.5,165,,165,250,275,280,,280,707.5,SBD
7,Thomas Byam,M,1995-06-28,26,AB,Raw,Open,105,110,227.5,240,252.5,,252.5,150,162.5,-182.5,,162.5,272.5,285,-292.5,,285,700,SBD
8,Craig Damen,M,1987-08-28,34,AB,Wraps,Open,104,110,227.5,252.5,-265,,252.5,140,147.5,-155,,147.5,250,272.5,-282.5,,272.5,672.5,SBD
9,Brady Trotter,M,1986-02-22,35,AB,Wraps,Open,105.4,110,242.5,255,-265,,255,125,135,142.5,,142.5,255,275,-280,,275,672.5,SBD
10,Michael Rypien,M,1989-11-09,31,AB,Wraps,Open,108.7,110,245,-260,-260,,245,125,-132.5,135,,135,240,257.5,-265,,257.5,637.5,SBD
1,Robbie Sereda,M,1994-10-24,,AB,Wraps,Open,122.7,125,292.5,-310,310,,310,197.5,-210,-210,,197.5,295,310,320,,320,827.5,SBD
2,Matthew Dowling,M,1987-07-14,34,AB,Wraps,Open,120.9,125,325,350,-365,,350,170,182.5,-187.5,,182.5,267.5,285,-300,,285,817.5,SBD
3,Umberto Cappella,M,1991-02-10,30,AB,Wraps,Open,122.2,125,265,287.5,300,,300,180,192.5,-200,,192.5,287.5,307.5,-320,,307.5,800,SBD
DQ,Ryley Turenne,M,1998-08-31,23,,Wraps,Open,123,125,230,-250,,,230,140,155,-160,,155,,,,,,,SBD
1,Dorrell Petties,M,,31,AB,Raw,Open,127.4,140,265,285,292.5,,292.5,167.5,172.5,175,,175,335,370,375,,375,842.5,SBD
2,Bradly Shepherd,M,1982-02-21,39,AB,Wraps,Open,138.6,140,370,-380,-382.5,,370,165,175,-185,,175,275,-300,-300,,275,820,SBD
1,Jake Daly,M,1989-05-22,,AB,Raw,Open,161.3,140+,-220,220,-237.5,,220,170,177.5,-185,,177.5,220,235,245,,245,642.5,SBD
1,Evan Sereda,M,2004-04-13,17,AB,Wraps,J17-19,135.5,140,165,-182.5,185,,185,85,-92.5,95,-102.5,95,165,175,182.5,,182.5,462.5,SBD
1,Hayden Hampton,M,2007-09-21,,AB,Wraps,J14-16,89.8,90,85,92.5,-97.5,,92.5,45,50,52.5,-55,52.5,97.5,105,107.5,110,107.5,252.5,SBD
DQ,Kristopher Heiser,M,1973-02-01,48,AB,Multi-ply,M45-49,130.9,140,230,250,,,250,-230,-230,-230,,,-230,,,,,,SBD
1,David Wray,M,1988-12-14,32,AB,Raw,Open,106.7,110,,,,,,160,177.5,-180,,177.5,,,,,,177.5,B
1,David Wray,M,1988-12-14,32,AB,Raw,Open,106.7,110,,,,,,,,,,,205,220,230,,230,230,D
1,Hayden Hampton,M,2007-09-21,,AB,Raw,J14-16,89.8,90,,,,,,,,,,,97.5,105,107.5,110,107.5,107.5,D
