Division,WeightClassKg,Place,Name,Team,BodyweightKg,Best3SquatKg,Best3BenchKg,Best3DeadliftKg,TotalKg,Equipment,Event,Sex
Boys,51.71,1,Andrew King,Cleveland Tarkington,51.44,115.67,65.77,117.93,299.37,Single-ply,SBD,M
Boys,51.71,2,Wade Walker,Splendora,49.8,70.31,34.02,74.84,179.17,Single-ply,SBD,M
Boys,55.79,1,Jacob Cavness,Santa Fe,55.79,138.35,77.11,120.2,335.66,Single-ply,SBD,M
Boys,59.87,1,Jessy Yanez,Channelview,59.42,195.04,99.79,208.65,503.49,Single-ply,SBD,M
Boys,59.87,2,Ethan Torres,New Caney,58.51,170.1,83.91,154.22,408.23,Single-ply,SBD,M
Boys,59.87,3,Oscar Puente,New Caney,59.42,129.27,86.18,149.69,365.14,Single-ply,SBD,M
Boys,59.87,4,Lane Baker,Shepherd,56.61,131.54,72.57,142.88,347,Single-ply,SBD,M
Boys,59.87,5,Dario Santillan,New Caney,58.24,127.01,83.91,131.54,342.46,Single-ply,SBD,M
Boys,59.87,6,Don Dana,Shepherd,58.6,142.88,72.57,124.74,340.19,Single-ply,SBD,M
Boys,59.87,7,James Lightfoot,Channelview,59.87,120.2,77.11,113.4,310.71,Single-ply,SBD,M
Boys,59.87,8,Walker Windt,Shepherd,57.79,124.74,52.16,120.2,297.1,Single-ply,SBD,M
Boys,59.87,9,Chase Whitmire,Shepherd,57.15,113.4,65.77,111.13,290.3,Single-ply,SBD,M
Boys,59.87,10,Kade McCunn,Splendora,58.6,95.25,52.16,120.2,267.62,Single-ply,SBD,M
Boys,59.87,11,Clayton Sievertson,Shepherd,57.88,106.59,61.23,97.52,265.35,Single-ply,SBD,M
Boys,59.87,DQ,Jace Boehm,Splendora,59.06,129.27,79.38,,,Single-ply,SBD,M
Boys,59.87,DQ,Bryant Wilkerson,Cleveland Tarkington,59.42,138.35,,,,Single-ply,SBD,M
Boys,67.13,1,Juan Carapia,Shepherd,63.78,201.85,102.06,195.04,498.95,Single-ply,SBD,M
Boys,67.13,2,Antonio Garcia,Splendora,66.04,163.29,102.06,176.9,442.25,Single-ply,SBD,M
Boys,67.13,3,Will Whitaker,Shepherd,62.6,163.29,92.99,161.03,417.3,Single-ply,SBD,M
Boys,67.13,4,Zach Odom,Huffman Hargrave,67.13,140.61,81.65,190.51,412.77,Single-ply,SBD,M
Boys,67.13,5,Payton Orzechowski,Cleveland Tarkington,66.68,158.76,97.52,154.22,410.5,Single-ply,SBD,M
Boys,67.13,6,Joseph Flores,Huffman Hargrave,65.86,127.01,106.59,174.63,408.23,Single-ply,SBD,M
Boys,67.13,7,Garrett Hlavaty,Cleveland Tarkington,62.51,165.56,92.99,133.81,392.36,Single-ply,SBD,M
Boys,67.13,8,Shelton Vasquez,Shepherd,62.6,156.49,74.84,161.03,392.36,Single-ply,SBD,M
Boys,67.13,9,Rakan Devito,Cleveland Tarkington,63.96,136.08,97.52,124.74,358.34,Single-ply,SBD,M
Boys,67.13,10,Hector Hernadnez,Splendora,64.86,120.2,70.31,140.61,331.12,Single-ply,SBD,M
Boys,67.13,11,Matthew Wilburn,Santa Fe,60.96,115.67,72.57,124.74,312.98,Single-ply,SBD,M
Boys,74.84,1,Julian Wetzel,Huffman Hargrave,72.85,181.44,122.47,197.31,501.22,Single-ply,SBD,M
Boys,74.84,2,Caleb Evans-Pickens,New Caney Porter,74.3,190.51,111.13,190.51,492.15,Single-ply,SBD,M
Boys,74.84,3,Andrew Hernandez,Splendora,74.84,181.44,108.86,192.78,483.08,Single-ply,SBD,M
Boys,74.84,4,Pierre Bynum,Port Arthur Memorial,67.31,174.63,102.06,181.44,458.13,Single-ply,SBD,M
Boys,74.84,5,Spencer Holleman,New Caney Porter,72.67,183.7,106.59,151.95,442.25,Single-ply,SBD,M
Boys,74.84,6,Chase Dudley,Santa Fe,68.31,138.35,92.99,165.56,396.89,Single-ply,SBD,M
Boys,74.84,7,Avery Garza,Santa Fe,69.13,120.2,102.06,165.56,387.82,Single-ply,SBD,M
Boys,74.84,8,Elijah Wyatt,Shepherd,70.58,140.61,70.31,174.63,385.55,Single-ply,SBD,M
Boys,74.84,9,Jahron Jones,Conroe Oak Ridge,74.84,136.08,77.11,136.08,349.27,Single-ply,SBD,M
Boys,82.1,1,Lawrence Vaughn,Port Neches-Groves,76.57,183.7,115.67,201.85,501.22,Single-ply,SBD,M
Boys,82.1,2,Jacob Smith,Port Neches-Groves,79.38,179.17,140.61,181.44,501.22,Single-ply,SBD,M
Boys,82.1,3,Zane Obregon,Splendora,79.83,174.63,124.74,199.58,498.95,Single-ply,SBD,M
Boys,82.1,4,Deryk Villarreal,Huffman Hargrave,81.92,190.51,122.47,183.7,496.68,Single-ply,SBD,M
Boys,82.1,5,Justin McAlpin,New Caney,82.1,154.22,102.06,176.9,433.18,Single-ply,SBD,M
Boys,82.1,6,Daniel Vasquez,Shepherd,78.83,172.37,106.59,149.69,428.64,Single-ply,SBD,M
Boys,82.1,7,Evan Barrow,Huffman Hargrave,80.74,154.22,92.99,176.9,424.11,Single-ply,SBD,M
Boys,82.1,8,Charles Bosley,New Caney Porter,82.01,170.1,83.91,161.03,415.04,Single-ply,SBD,M
Boys,82.1,9,Myles Terry,Conroe Oak Ridge,79.47,113.4,77.11,145.15,335.66,Single-ply,SBD,M
Boys,82.1,DQ,Garrett Ling,Cleveland Tarkington,78.02,131.54,,,,Single-ply,SBD,M
Boys,89.81,1,Sean Crabtree,Trinity,89.81,181.44,138.35,183.7,503.49,Single-ply,SBD,M
Boys,89.81,2,Donovan Latin,Port Neches-Groves,89.45,176.9,113.4,204.12,494.42,Single-ply,SBD,M
Boys,89.81,3,Marshall Miller,Cleveland Tarkington,89.54,183.7,102.06,183.7,469.47,Single-ply,SBD,M
Boys,89.81,4,Logan Brown,Splendora,89.81,190.51,117.93,158.76,467.2,Single-ply,SBD,M
Boys,89.81,5,Zac Chance,Shepherd,87.63,174.63,106.59,174.63,455.86,Single-ply,SBD,M
Boys,89.81,6,Jacob Osbourne,Port Neches-Groves,89.81,174.63,97.52,183.7,455.86,Single-ply,SBD,M
Boys,89.81,7,Aaron Foster,Crosby,88.18,165.56,99.79,183.7,449.06,Single-ply,SBD,M
Boys,89.81,8,Brice Major,Shepherd,86.55,158.76,111.13,170.1,439.98,Single-ply,SBD,M
Boys,89.81,9,Beau McCrary,Huffman Hargrave,87.72,136.08,92.99,163.29,392.36,Single-ply,SBD,M
Boys,89.81,10,Nick Ochoa,Trinity,87.82,136.08,74.84,174.63,385.55,Single-ply,SBD,M
Boys,89.81,11,Emilio Cleveland,Trinity,89.81,136.08,83.91,129.27,349.27,Single-ply,SBD,M
Boys,89.81,12,Christian Carranza,New Caney Porter,89.81,,90.72,172.37,263.08,Single-ply,BD,M
Boys,99.79,1,Max Gonzalez,Conroe Oak Ridge,98.88,258.55,145.15,285.76,689.46,Single-ply,SBD,M
Boys,99.79,2,Brandon Diaz,Crosby,97.89,254.01,142.88,226.8,623.69,Single-ply,SBD,M
Boys,99.79,3,Clayton Frank,Splendora,99.79,222.26,156.49,213.19,591.94,Single-ply,SBD,M
Boys,99.79,4,Kaden Jones,Crosby,95.62,215.46,136.08,197.31,548.85,Single-ply,SBD,M
Boys,99.79,5,Gage Slaughter,Santa Fe,90.26,208.65,129.27,204.12,542.04,Single-ply,SBD,M
Boys,99.79,6,Robert Zukowski,Port Neches-Groves,99.7,204.12,108.86,163.29,476.27,Single-ply,SBD,M
Boys,99.79,7,Christian Serrano,Channelview,99.79,181.44,95.25,199.58,476.27,Single-ply,SBD,M
Boys,99.79,8,Rodolfo Mayorquin,New Caney,92.17,195.04,113.4,163.29,471.74,Single-ply,SBD,M
Boys,99.79,9,Kaylon Ellis,Shepherd,99.16,174.63,102.06,165.56,442.25,Single-ply,SBD,M
Boys,99.79,10,Logan Alpha,Splendora,96.89,174.63,97.52,156.49,428.64,Single-ply,SBD,M
Boys,99.79,11,Canton Kempf,Santa Fe,92.71,161.03,92.99,156.49,410.5,Single-ply,SBD,M
Boys,99.79,12,Mason Walters,Shepherd,99.34,142.88,106.59,142.88,392.36,Single-ply,SBD,M
Boys,99.79,13,Jacob Mikel,Splendora,92.08,133.81,70.31,142.88,347,Single-ply,SBD,M
Boys,99.79,14,Kyler Colbert,Cleveland Tarkington,99.79,92.99,49.9,95.25,238.14,Single-ply,SBD,M
Boys,99.79,15,Gavin Edwards,Cleveland Tarkington,92.62,142.88,,,142.88,Single-ply,S,M
Boys,109.77,1,Michael Bush,Channelview,103.78,233.6,149.69,242.67,625.96,Single-ply,SBD,M
Boys,109.77,2,Jordan Thomas #3,Port Arthur Memorial,109.04,215.46,142.88,249.48,607.81,Single-ply,SBD,M
Boys,109.77,3,Donaven Jackson,Port Arthur Memorial,104.51,233.6,124.74,226.8,585.13,Single-ply,SBD,M
Boys,109.77,4,Zyhon Bell,New Caney Porter,102.51,229.06,142.88,165.56,537.51,Single-ply,SBD,M
Boys,109.77,5,Brandon Haltom,Cleveland Tarkington,101.33,192.78,113.4,204.12,510.29,Single-ply,SBD,M
Boys,109.77,6,Hunter Smith #5,Trinity,101.6,165.56,99.79,165.56,430.91,Single-ply,SBD,M
Boys,109.77,7,Braden e Wright,Crosby,103.42,190.51,97.52,142.88,430.91,Single-ply,SBD,M
Boys,109.77,8,Logan Lofton,New Caney,107.05,158.76,106.59,142.88,408.23,Single-ply,SBD,M
Boys,109.77,DQ,Eagan Oliver,Santa Fe,108.14,,,,,Single-ply,SBD,M
Boys,109.77,DQ,Collin Rhodes #2,Splendora,104.51,,,,,Single-ply,SBD,M
Boys,124.74,1,Gus Davis,Huffman Hargrave,123.74,249.48,149.69,256.28,655.44,Single-ply,SBD,M
Boys,124.74,2,Peyton McCormick,Cleveland Tarkington,118.39,226.8,147.42,208.65,582.87,Single-ply,SBD,M
Boys,124.74,3,Abner Mancillas,Channelview,116.12,226.8,151.95,190.51,569.26,Single-ply,SBD,M
Boys,124.74,4,DeAndre Kindred,Conroe Oak Ridge,112.49,210.92,129.27,208.65,548.85,Single-ply,SBD,M
Boys,124.74,5,Trent Mikes,Santa Fe,123.65,226.8,124.74,195.04,546.58,Single-ply,SBD,M
Boys,124.74,6,Alec Genera,New Caney,121.93,226.8,151.95,163.29,542.04,Single-ply,SBD,M
Boys,124.74,7,Austin Couhig,Cleveland Tarkington,118.93,204.12,120.2,210.92,535.24,Single-ply,SBD,M
Boys,124.74,8,Justin Capps,Shepherd,116.12,204.12,111.13,215.46,530.7,Single-ply,SBD,M
Boys,124.74,9,Tyler Thomas,Crosby,111.4,204.12,120.2,204.12,528.44,Single-ply,SBD,M
Boys,124.74,10,Cage Shultz,Santa Fe,118.93,192.78,115.67,170.1,478.54,Single-ply,SBD,M
Boys,124.74,11,Nestor Palma,New Caney Porter,123.38,183.7,106.59,183.7,474,Single-ply,SBD,M
Boys,124.74,12,Roberto Medina,Crosby,117.48,158.76,97.52,174.63,430.91,Single-ply,SBD,M
Boys,124.74,13,Elis Caceres,Trinity,110.13,151.95,68.04,174.63,394.63,Single-ply,SBD,M
Boys,124.74,14,Xavier Lopez,New Caney,113.4,151.95,81.65,154.22,387.82,Single-ply,SBD,M
Boys,124.74,15,Billy McGilberry,Santa Fe,116.39,147.42,83.91,147.42,378.75,Single-ply,SBD,M
Boys,124.74,16,Colton Smith #2,Trinity,119.48,111.13,74.84,142.88,328.85,Single-ply,SBD,M
Boys,124.74,17,Patrick Mulka,Splendora,111.4,142.88,,,142.88,Single-ply,S,M
Boys,124.74+,1,Zach Taylor,Shepherd,141.16,328.85,165.56,249.48,743.89,Single-ply,SBD,M
Boys,124.74+,2,Tyler Talavera,New Caney Porter,132.63,244.94,149.69,190.51,585.13,Single-ply,SBD,M
Boys,124.74+,3,Paula Vaipulu,Channelview,135.9,249.48,124.74,204.12,578.33,Single-ply,SBD,M
Boys,124.74+,4,Daniel Morris #2,Crosby,135.53,249.48,127.01,197.31,573.79,Single-ply,SBD,M
Boys,124.74+,5,Dale Martin,Splendora,147.69,215.46,113.4,181.44,510.29,Single-ply,SBD,M
Boys,124.74+,DQ,Alex O'Dell,Cleveland Tarkington,125.01,226.8,,,,Single-ply,SBD,M
Boys,,NS,Abraham Reyes,Port Neches-Groves,,,,,,Single-ply,SBD,M
Boys,,NS,Justin Tesno,Conroe Oak Ridge,,,,,,Single-ply,SBD,M
Boys,,NS,Byron Henderson,Channelview,,,,,,Single-ply,SBD,M
Boys,,NS,Trevon Hill,Conroe Oak Ridge,,,,,,Single-ply,SBD,M
Boys,,NS,Benjamin Del Ray,Conroe Oak Ridge,,,,,,Single-ply,SBD,M
Boys,,NS,Wade Lewis,Crosby,,,,,,Single-ply,SBD,M
Boys,,NS,Christopher Fernandez,Santa Fe,,,,,,Single-ply,SBD,M
Boys,,NS,Tyler Foxworth,Shepherd,,,,,,Single-ply,SBD,M
Boys,,NS,William Cikalo,New Caney,,,,,,Single-ply,SBD,M
