Place,Country,Name,CyrillicName,BirthDate,Sex,Equipment,Division,BodyweightKg,WeightClassKg,Squat1Kg,Squat2Kg,Squat3Kg,Best3SquatKg,Bench1Kg,Bench2Kg,Bench3Kg,Best3BenchKg,Deadlift1Kg,Deadlift2Kg,Deadlift3Kg,Best3DeadliftKg,TotalKg,Event
1,USA,Marianna Gasparyan,,1989-02-25,F,Wraps,Open,56,56,245,255,260,260,120,127.5,132.5,132.5,205,215,220,220,612.5,SBD
2,USA,Stefanie Cohen,Стефани Коэн,1992-03-28,F,Wraps,Open,54.4,56,220,230,-235,230,102.5,107.5,110,110,230,240,-245,240,580,SBD
3,Australia,Jessica Zukowski,Джессика Зукауски,1987-09-03,F,Wraps,Open,55.5,56,175,-185,185,185,87.5,-92.5,-92.5,87.5,172.5,182.5,192.5,192.5,465,SBD
4,USA,Emily Hu #1,Эмили Ху,1982-05-10,F,Raw,Open,55.7,56,-145,145,-155,145,115,122.5,-127.5,122.5,175,185,195,195,462.5,SBD
5,USA,Haley Hill,Хейли Хилл,1997-03-21,F,Wraps,Open,55.7,56,165,175,-180,175,95,97.5,-100,97.5,172.5,-182.5,-182.5,172.5,445,SBD
6,Australia,Michelle Hewlett,Мишель Хюлетт,1985-06-10,F,Wraps,Open,55.7,56,150,-157.5,160,160,80,-85,-85,80,170,-180,180,180,420,SBD
7,USA,Riki Tyminski,Рики Тыминьски,1986-07-30,F,Raw,Open,53,56,135,140,-142.5,140,82.5,87.5,90,90,155,-167.5,-167.5,155,385,SBD
1,Australia,Laura Sgro,Лаура Сгро,1990-11-28,F,Wraps,Open,58.5,60,210,-225,-225,210,105,112.5,-115,112.5,175,185,195,195,517.5,SBD
2,,Alora Griffiths,Алора Гриффитс,1992-04-12,F,Wraps,Open,59,60,180,187.5,-192.5,187.5,92.5,97.5,100,100,192.5,-205,-205,192.5,480,SBD
3,Canada,Robyn Schmidt,Робин Шмидт,1988-03-16,F,Wraps,Open,58,60,-162.5,165,187.5,187.5,85,95,-100,95,160,172.5,-182.5,172.5,455,SBD
1,USA,Melissa Teich,Мелисса Тайх,1988-09-12,F,Wraps,Open,66.1,67.5,185,197.5,-205,197.5,105,110,-112.5,110,187.5,200,-205,200,507.5,SBD
2,,Leah West Casciano,,1990-02-23,F,Wraps,Open,63.2,67.5,182.5,192.5,-197.5,192.5,97.5,102.5,-107.5,102.5,185,192.5,197.5,197.5,492.5,SBD
3,USA,Jamie Christenson,Джейми Кристенсон,,F,Wraps,Open,65.1,67.5,157.5,170,-182.5,170,92.5,102.5,-107.5,102.5,182.5,200,212.5,212.5,485,SBD
4,,Tasha Whelan,Таша Велан,1984-11-17,F,Wraps,Open,64.8,67.5,157.5,170,-182.5,170,95,100,-102.5,100,195,207.5,-212.5,207.5,477.5,SBD
1,USA,Ashley Garcia #1,Ашли Гарсиа,1981-05-26,F,Wraps,Open,71.9,75,227.5,-237.5,-245,227.5,110,117.5,122.5,122.5,227.5,240,250,250,600,SBD
2,USA,Brianny Terry,,1996-07-10,F,Wraps,Open,74.9,75,187.5,200,212.5,212.5,105,-112.5,-112.5,105,225,240,253.5,253.5,571,SBD
3,,Caitlyn Dunlap,Кейтлин Данлап,1991-02-22,F,Wraps,Open,72.5,75,205,-220,220,220,110,120,-127.5,120,190,207.5,-220,207.5,547.5,SBD
4,,Jennessa Labbate,,1994-09-18,F,Wraps,Open,70.6,75,192.5,-207.5,207.5,207.5,105,115,-120,115,200,217.5,222.5,222.5,545,SBD
5,Canada,Maureen Bornbaum,,1993-03-26,F,Raw,Open,74.4,75,180,192.5,197.5,197.5,107.5,115,120,120,205,215,227.5,227.5,545,SBD
6,USA,Salina Vega,Салина Вега,1979-09-11,F,Wraps,Open,71,75,167.5,180,190,190,95,102.5,-107.5,102.5,172.5,185,-197.5,185,477.5,SBD
1,Australia,Chleo Van Wyk,Клио Ван Уык,1990-09-29,F,Wraps,Open,79.3,82.5,255,-267.5,,255,150,155,160,160,252.5,262.5,-272.5,262.5,677.5,SBD
2,,Lacey Mesley,Лейси Мэсли,1986-02-04,F,Wraps,Open,80.2,82.5,220,232.5,240,240,105,112.5,,112.5,200,210,-215,210,562.5,SBD
3,USA,Nicole Moore,Никол Дунлап,1986-11-11,F,Wraps,Open,79.2,82.5,190,-202.5,205,205,97.5,102.5,-110,102.5,220,237.5,-247.5,237.5,545,SBD
4,,Jodie Sajor,Джоди Сейджор,,F,Wraps,Open,77.7,82.5,200,207.5,217.5,217.5,120,130,-135,130,192.5,-202.5,-202.5,192.5,540,SBD
1,,Randi Lee,Ранди Ли,1986-01-10,F,Wraps,Open,119.3,90+,227.5,247.5,260,260,137.5,147.5,152.5,152.5,235,252.5,260,260,672.5,SBD
2,USA,Carina Davis,Карина Дейвис,1983-05-09,F,Wraps,Open,117.1,90+,227.5,245,262.5,262.5,140,150,162.5,162.5,195,215,227.5,227.5,652.5,SBD
3,USA,Sara Schiff,Сэра Шифф,1975-02-10,F,Wraps,Open,106.6,90+,212.5,-222.5,222.5,222.5,115,125,-132.5,125,255,273,-277.5,273,620.5,SBD
4,,Erin Palma,Эрин Палма,1992-03-03,F,Wraps,Open,107,90+,200,212.5,-227.5,212.5,95,100,105,105,202.5,215,-230,215,532.5,SBD
1,,Andrey Kim #1,,1986-06-27,M,Wraps,Open,62.1,67.5,250,-270,-270,250,160,170,175,175,240,-255,-265,240,665,SBD
1,USA,Edgar Acevedo,Едгар Асеведо,1995-11-10,M,Wraps,Open,74.8,75,272.5,290,-297.5,290,175,182.5,-187.5,182.5,262.5,-275,-275,262.5,735,SBD
2,USA,Alex Ramos #1,Алекс Рамос,1993-08-19,M,Wraps,Open,74.9,75,287.5,-310,-310,287.5,147.5,162.5,-170,162.5,265,280,-290,280,730,SBD
3,USA,Keith Correa,Кит Корриа,1996-04-10,M,Wraps,Open,74.7,75,237.5,245,,245,147.5,155,-162.5,155,290,310,317.5,317.5,717.5,SBD
G,,Michael DeRouen,,1994-05-14,M,Wraps,Open,79,82.5,275,292.5,302.5,302.5,180,-190,190,190,290,310,-315,310,802.5,SBD
1,USA,Kody Blazek,Коди Блейзэк,1986-06-11,M,Wraps,Open,79.8,82.5,312.5,-327.5,327.5,327.5,200,207.5,210,210,-335,335,350,350,887.5,SBD
2,USA,Chad Penson,Чад Пенсон,1992-06-13,M,Wraps,Open,82.3,82.5,305,330,332.5,332.5,192.5,205,-210,205,317.5,335,-340,335,872.5,SBD
3,Bulgaria,Rostislav Petkov,,1988-12-12,M,Wraps,Open,80.5,82.5,300,320,330,330,190,197.5,-200,197.5,320,-340,-365,320,847.5,SBD
4,USA,Kevin Torres,Кевин Торрез,1994-02-14,M,Wraps,Open,81.4,82.5,300,317.5,-332.5,317.5,192.5,-200,-200,192.5,287.5,-310,-310,287.5,797.5,SBD
1,Kazakhstan,Erbol Nauanov,,1989-12-17,M,Wraps,Open,88.8,90,330,-350,350,350,-215,215,-230,215,315,330,-335,330,895,SBD
2,Ukraine,Oleksii Melnyk,,1990-04-26,M,Wraps,Open,86.8,90,340,360,-367.5,360,195,-205,-205,195,310,325,-340,325,880,SBD
3,,Mark Plummer #1,Марк Пламмэр,1997-05-12,M,Wraps,Open,89.5,90,320,-345,345,345,190,210,-227.5,210,320,-330,-340,320,875,SBD
4,USA,Mackie Fleishman,Маки Флайшман,1987-08-12,M,Wraps,Open,88.5,90,295,-305,-312.5,295,200,212.5,-227.5,212.5,300,322.5,-330,322.5,830,SBD
5,USA,Eric Wilberg,Эрик Вилберг,1995-09-23,M,Wraps,Open,89.4,90,300,315,325,325,185,-192.5,-192.5,185,317.5,-345,-345,317.5,827.5,SBD
1,USA,Cailer Woolam,Кейлэр Вулэм,1994-10-31,M,Raw,Open,97.1,100,277.5,292.5,300,300,202.5,-215,215,215,402.5,422.5,431,431,946,SBD
2,,Ranson Lee,Рансон Ли,1990-12-11,M,Wraps,Open,99.5,100,327.5,-345,345,345,200,215,222.5,222.5,307.5,322.5,-340,322.5,890,SBD
3,USA,Phillip Herndon,Филип Херндон,1995-05-21,M,Wraps,Open,98.2,100,357.5,-370,-370,357.5,200,-210,,200,320,-342.5,-342.5,320,877.5,SBD
4,USA,Thomas Van Boven,Томас Ван Бовэн,1989-10-16,M,Wraps,Open,98.9,100,340,-365,365,365,190,197.5,-202.5,197.5,300,312.5,-327.5,312.5,875,SBD
1,,Yury Belkin,,1990-12-05,M,Wraps,Open,103.4,110,380,400,415,415,220,230,,230,-380,380,400,400,1045,SBD
2,USA,Jason Legrand,Джейсон Легранд,1993-05-18,M,Wraps,Open,107.6,110,367.5,387.5,400,400,212.5,217.5,222.5,222.5,360,377.5,-390,377.5,1000,SBD
3,,Burkit Muratkhanuly,,1995-05-08,M,Wraps,Open,109.5,110,-350,350,375,375,225,235,-240,235,345,360,-392.5,360,970,SBD
4,USA,Ogden J Myklebust III,Огден Мыклбуст,1986-09-08,M,Wraps,Open,104.9,110,345,-365,-365,345,220,-235,-235,220,362.5,382.5,-390,382.5,947.5,SBD
5,UK,Anthony Cooper #1,Антони Купер,1995-03-19,M,Wraps,Open,108.7,110,330,350,365,365,235,245,-252.5,245,310,330,,330,940,SBD
6,,János Rajmund Nagy,Янош Раймунд Наги,1993-11-06,M,Wraps,Open,109.7,110,310,337.5,350,350,200,210,215,215,335,360,375,375,940,SBD
1,USA,Andy Huang #1,,1984-08-02,M,Wraps,Open,123.2,125,365,387.5,-402.5,387.5,215,225,230,230,335,357.5,,357.5,975,SBD
2,USA,Chris Bridgeford,Крис Бриджфорд,1994-07-29,M,Wraps,Open,119,125,362.5,-382.5,-382.5,362.5,217.5,-227.5,-227.5,217.5,370,-385,-385,370,950,SBD
3,,Daniel Clancy,Даниел Кланси,1985-07-14,M,Wraps,Open,121.5,125,-302.5,327.5,350,350,192.5,207.5,-217.5,207.5,332.5,357.5,382.5,382.5,940,SBD
4,USA,Kyle Stewart,Кайл Стеуарт,1988-12-23,M,Wraps,Open,124.2,125,320,-330,330,330,255,265,-272.5,265,320,337.5,-352.5,337.5,932.5,SBD
DQ,USA,Sean Green #3,Шон Грин,1987-05-23,M,Wraps,Open,119.2,125,-377.5,377.5,-385,377.5,207.5,-212.5,-212.5,207.5,-387.5,-387.5,,,,SBD
DQ,USA,Tra Farrington,Трей Фаррингтон,1991-01-11,M,Wraps,Open,122.2,125,-330,330,360,360,-260,-260,-260,,,,,,,SBD
DQ,,David Williamson #1,Дейвид Виллиамсон,1984-07-25,M,Wraps,Open,136.7,140,,,,,,,,,,,,,,SBD
1,,Gergő Benes,,1998-05-11,M,Wraps,Open,146.9,140+,360,390,400,400,210,222.5,,222.5,340,370,,370,992.5,SBD
2,USA,Logan Chapman,,1994-12-11,M,Wraps,Open,151.2,140+,400,-422.5,422.5,422.5,227.5,-242.5,-242.5,227.5,340,-365,-365,340,990,SBD
NS,,Artur Chrząszcz,,,M,Wraps,Open,,,,,,,,,,,,,,,,SBD
NS,USA,Chris Weist,,,M,Wraps,Open,,,,,,,,,,,,,,,,SBD
NS,Finland,Eduard Khanjyan,,1985-10-12,M,Wraps,Open,,,,,,,,,,,,,,,,SBD
NS,,Ivaylo Hristov,,,M,Wraps,Open,,,,,,,,,,,,,,,,SBD
NS,USA,James Searcy,,1990-03-08,M,Wraps,Open,,,,,,,,,,,,,,,,SBD
NS,,Jonathan Pritchard,,,M,Wraps,Open,,,,,,,,,,,,,,,,SBD
NS,,Jose Salgado,,,M,Wraps,Open,,,,,,,,,,,,,,,,SBD
NS,,Josh Lentz,,,M,Wraps,Open,,,,,,,,,,,,,,,,SBD
NS,USA,Nick Best,,1968-11-03,M,Wraps,Open,,,,,,,,,,,,,,,,SBD
NS,USA,Nick Forte,,,M,Wraps,Open,,,,,,,,,,,,,,,,SBD
NS,,Pauli Jussila,,,M,Wraps,Open,,,,,,,,,,,,,,,,SBD
NS,,Rodney Manor,,,M,Wraps,Open,,,,,,,,,,,,,,,,SBD
NS,,Ryan Raynier,,,M,Wraps,Open,,,,,,,,,,,,,,,,SBD
NS,USA,Steve Johnson #2,Стив Джонсон,,M,Wraps,Open,,,,,,,,,,,,,,,,SBD
