﻿BDFPF BK BENCH EQUIPPED 2011
BK BENCH  EQUIPPED 2011 Aiseau
                                     BW                 NAME                         Voornaam         CLUB             AGE CAT        BW      1       2        3        4        POINTS
1                                1   - 70 KG Lerot                                   Viviane      V   Castors          52        M3   66,7    47,5    52,5     55       56,5     43,27
1                                1                      - 80 KG Dechamps             Nadege       V   Castors          14        T1   74,3    -82,5   82,5     90       -93      65,32
2                                2   - 80 KG Kumps                                   Francoise    V   Castors          37        SR   72,4    65      70       -72,5             51,81
1                                1   60 KG Manchel                                   Fabrice      M   Castors          42        M1   59,6    90      95       100      -102,5   81,85
1                                1                      67,5 KG De Vissher           Geovanni     M   Power Lebbeke    17        T2   62,3    -110    -115     115      -120     90,00
2                                1   67,5 KG Eeckhout                                Laurens      M   Patton Team      15        T1   66,3    105     -110     -110              77,46
3                                2   67,5 KG Mignolet                                Geoffrey     M   Castors          16        T2   63,1    87,5    95       97,5              75,36
4                                2                      67,5 KG Van Gucht            Maikel       M   Power lebbeke    15        T1   65,5    85      92,5     -105,5            69,01
5                                3   67,5 KG Cuylle                                  Angelo       M   Isogym           17        T2   66,3    70      75       80                59,02
1                                1   75 KG Verret                                    Danny        M   Planet Fitness   36        SR   75,0    145     -152,5   -152,5            96,35
2                                1                      75 KG Hallewaert             Bart         M   Isogym           42        M1   74,9    132,5   137,5    140      142,5    93,13
3                                1   75 KG Krikilion                                 Dirk         M   Patton Team      50        M3   73,7    120     -125,5   125,5    127      84,55
4                                1                      75 KG Callemeyn              Johny        M   Fit 4 fun        57        M4   74,3    115     120      123      -125     82,34
1                                1   82,5 KG Tirifahy                                Pierre       M   Castors          39        SR   77,7    157,5   160      162,5    -175,5   105,09
2                                1   82,5 KG Remy                                    Roger        M   Castors          57        M4   75,4    110     115      120      123      79,40
1                                1   90 KG Verbeke                                   Beny         M   Isogym           45        M2   86,2    120     127,5    130               78,17
2                                2   90 KG Dhaene                                    Kevin        M   Planet Fitness   24        SR   85,2    100     105      -110              63,62
3                                1   90 KG Wouters                                   Sammy        M   Fit 4 Fun        22        JR   88,3    92,5    -97,5    97,5              57,74
1                                1   100 KG Servotte                                 Geoffroy     M   Planet Fitness   30        SR   92,8    202,5   212,5    215      217,5    123,65
2                                1   100 KG Smet                                     Rudy         M   Planet Fitness   42        M1   92,8    -165    -165     165               94,89
3                                1   100 KG Samijn                                   Kenny        M   KBBC             22        JR   99,1    155     160      -165              89,01
1                                1   110 KG Vermote                                  Gianni       M   Isogym           38        SR   106,8   160     172,5    180               97,34
2                                1   110 KG Van Roy                                  Yannick      M   Planet Fitness   19        T3   102,0   130     137,5    140               76,93
1                                1   125 KG Malotteau                                Jean-Louis   M   Castors          47        M2   110,1   207,5   215      -223              115,33
2                                1                      125 KG Dechamps              Jerome       M   Castors          22        JR   122,2   175     182,5    -190              95,76
3                                1                      125 KG Vannieuwenh Mathieu                M   Isogym           19        T3   111,0   85      -95      -95               45,50
1                                1   145 KG Backelant                                Wilhelm      M   Planet fitness   47        M2   144,7   225     240      -250              119,57
2                                1                      145 KG Dechamps              Sebastien    M   Castors          17        T2   127,0   170     175      -177,5            90,76
3                                1                      145 KG Goovaerts             Marc         M   Patton Team      53        M3   125,4   150     155      161      165      83,80
4                                1   145 KG Rogé                                     Johan        M   KBBC             61        M5   127,3   -145    145      150               77,73
NIEUW RECORD / NOUVEAU RECORD
BSTE ATLEET / MEILLEUR ATLETE
12 - 03 - 2011 Aiseau
